testbenches/results/waveforms/Immediate_Generator_tb_result.vcd
$date
	Sun Mar  2 07:05:16 2025
$end
$version
	Icarus Verilog
$end
$timescale
	1ps
$end
$scope module ImmediateGenerator_tb $end
$scope module immediate_generator $end
$var wire 7 ! opcode [6:0] $end
$var wire 20 " raw_imm [19:0] $end
$var reg 32 # imm [31:0] $end
$upscope $end
$upscope $end
$enddefinitions $end
$comment Show the parameter values. $end
$dumpall
$end
#0
$dumpvars
b11110110100 #
b11110110100 "
b1100111 !
$end
#1000
b11111111111111111111101110011111 #
b11 !
b11111111101110011111 "
#2000
b100110110 #
b10011 !
b100110110 "
#3000
b0 #
b1111 !
b0 "
#4000
b11111111111111111111100000010111 #
b1110011 !
b11111111100000010111 "
#5000
b11110110100 #
b100011 !
b11110110100 "
#6000
b11111111111111111111101110011111 #
b11111111101110011111 "
#7000
b1011111011101111000000000000 #
b110111 !
b1011111011101111 "
#8000
b11011011111011101111000000000000 #
b10111 !
b11011011111011101111 "
#9000
b111101101000 #
b1100011 !
b11110110100 "
#10000
b11111111111111111111011100111110 #
b11111111101110011111 "
#11000
b111101101000 #
b1101111 !
b11110110100 "
#12000
b11111111111111111111011100111110 #
b11111111101110011111 "
#13000
b0 #
b110011 !
b11110110100 "
#14000
b11111111101110011111 "
