RV32I/testbenches/results/waveforms/ALU_Controller_tb_result.vcd
$date
	Wed Feb 26 14:20:14 2025
$end
$version
	Icarus Verilog
$end
$timescale
	1ps
$end
$scope module ALUController_tb $end
$scope module alu_controller $end
$var wire 3 ! funct3 [2:0] $end
$var wire 1 " funct7_5 $end
$var wire 1 # imm_10 $end
$var wire 7 $ opcode [6:0] $end
$var reg 4 % alu_op [3:0] $end
$upscope $end
$upscope $end
$enddefinitions $end
$comment Show the parameter values. $end
$dumpall
$end
#0
$dumpvars
b0 %
b10111 $
0#
0"
b0 !
$end
#10000
b1101111 $
#20000
b1100111 $
#30000
b1 %
b1100011 $
#40000
b1 !
#50000
b101 %
b100 !
#60000
b101 !
#70000
b110 %
b110 !
#80000
b111 !
#90000
b0 %
b0 !
b11 $
#100000
b1 !
#110000
b10 !
#120000
b100 !
#130000
b101 !
#140000
b0 !
b100011 $
#150000
b1 !
#160000
b10 !
#170000
b0 !
b10011 $
#180000
b111 %
b1 !
#190000
b101 %
b10 !
#200000
b110 %
b11 !
#210000
b100 %
b100 !
#220000
b1000 %
b101 !
#230000
b1001 %
1#
#240000
0#
b11 %
b110 !
#250000
b10 %
b111 !
#260000
b0 %
b0 !
b110011 $
#270000
b1 %
1"
#280000
0"
b101 %
b10 !
#290000
b110 %
b11 !
#300000
b100 %
b100 !
#310000
b1000 %
b101 !
#320000
b1001 %
1"
#330000
0"
b11 %
b110 !
#340000
b10 %
b111 !
#350000
b1110 %
b1 !
b1110011 $
#360000
b11 %
b10 !
#370000
b1010 %
b11 !
#380000
b1110 %
b101 !
#390000
b11 %
b110 !
#400000
b1010 %
b111 !
#410000
b1111 %
b0 !
b101010 $
