RV32I/testbenches/results/waveforms/RV32I46F_tb_result.vcd
$date
	Thu May 15 17:06:28 2025
$end
$version
	Icarus Verilog
$end
$timescale
	1ps
$end
$scope module RV32I46F_tb $end
$scope module rv32i46f $end
$var wire 1 ! clk $end
$var wire 1 " csr_write_enable $end
$var wire 32 # dbg_instruction [31:0] $end
$var wire 1 $ reset $end
$var wire 4 % write_mask [3:0] $end
$var wire 1 & trapped $end
$var wire 32 ' trap_target [31:0] $end
$var wire 3 ( trap_status [2:0] $end
$var wire 1 ) trap_done $end
$var wire 1 * tc_csr_write_enable $end
$var wire 5 + rs2 [4:0] $end
$var wire 5 , rs1 [4:0] $end
$var wire 3 - register_file_write_data_select [2:0] $end
$var wire 1 . register_file_write $end
$var wire 32 / read_data2 [31:0] $end
$var wire 32 0 read_data1 [31:0] $end
$var wire 5 1 rd [4:0] $end
$var wire 32 2 raw_next_pc [31:0] $end
$var wire 20 3 raw_imm [19:0] $end
$var wire 1 4 pc_stall $end
$var wire 32 5 pc_plus_4_signal [31:0] $end
$var wire 32 6 pc [31:0] $end
$var wire 7 7 opcode [6:0] $end
$var wire 32 8 next_pc [31:0] $end
$var wire 1 9 memory_write $end
$var wire 1 : memory_read $end
$var wire 1 ; jump $end
$var wire 32 < imm [31:0] $end
$var wire 32 = im_instruction [31:0] $end
$var wire 7 > funct7 [6:0] $end
$var wire 3 ? funct3 [2:0] $end
$var wire 1 @ debug_mode $end
$var wire 32 A data_memory_write_data [31:0] $end
$var wire 32 B data_memory_read_data [31:0] $end
$var wire 1 C cu_csr_write_enable $end
$var wire 32 D csr_trap_write_data [31:0] $end
$var wire 12 E csr_trap_address [11:0] $end
$var wire 32 F csr_read_data [31:0] $end
$var wire 32 G byte_enable_logic_register_file_write_data [31:0] $end
$var wire 1 H branch_taken $end
$var wire 1 I branch $end
$var wire 1 J alu_zero $end
$var wire 3 K alu_src_B_select [2:0] $end
$var wire 2 L alu_src_A_select [1:0] $end
$var wire 32 M alu_result [31:0] $end
$var wire 4 N alu_op [3:0] $end
$var reg 12 O csr_address [11:0] $end
$var reg 32 P csr_write_data [31:0] $end
$var reg 32 Q instruction [31:0] $end
$var reg 32 R register_file_write_data [31:0] $end
$var reg 32 S src_A [31:0] $end
$var reg 32 T src_B [31:0] $end
$scope module alu $end
$var wire 32 U src_A [31:0] $end
$var wire 32 V src_B [31:0] $end
$var wire 4 W alu_op [3:0] $end
$var reg 32 X alu_result [31:0] $end
$var reg 1 J alu_zero $end
$upscope $end
$scope module alu_controller $end
$var wire 1 Y funct7_5 $end
$var wire 1 Z imm_10 $end
$var wire 7 [ opcode [6:0] $end
$var wire 3 \ funct3 [2:0] $end
$var reg 4 ] alu_op [3:0] $end
$upscope $end
$scope module branch_logic $end
$var wire 1 J alu_zero $end
$var wire 3 ^ funct3 [2:0] $end
$var wire 1 I branch $end
$var reg 1 H branch_taken $end
$upscope $end
$scope module byte_enable_logic $end
$var wire 32 _ address [31:0] $end
$var wire 32 ` data_memory_read_data [31:0] $end
$var wire 32 a register_file_read_data [31:0] $end
$var wire 1 9 memory_write $end
$var wire 1 : memory_read $end
$var wire 3 b funct3 [2:0] $end
$var reg 32 c data_memory_write_data [31:0] $end
$var reg 1 d misaligned $end
$var reg 32 e register_file_write_data [31:0] $end
$var reg 4 f write_mask [3:0] $end
$upscope $end
$scope module control_unit $end
$var wire 1 g write_done $end
$var wire 1 ) trap_done $end
$var wire 7 h opcode [6:0] $end
$var wire 3 i funct3 [2:0] $end
$var reg 2 j alu_src_A_select [1:0] $end
$var reg 3 k alu_src_B_select [2:0] $end
$var reg 1 I branch $end
$var reg 1 C csr_write_enable $end
$var reg 1 ; jump $end
$var reg 1 : memory_read $end
$var reg 1 9 memory_write $end
$var reg 1 4 pc_stall $end
$var reg 1 . register_file_write $end
$var reg 3 l register_file_write_data_select [2:0] $end
$upscope $end
$scope module csr_file $end
$var wire 1 ! clk $end
$var wire 12 m csr_address [11:0] $end
$var wire 32 n csr_write_data [31:0] $end
$var wire 1 " csr_write_enable $end
$var wire 32 o marchid [31:0] $end
$var wire 32 p mhartid [31:0] $end
$var wire 32 q mimpid [31:0] $end
$var wire 32 r misa [31:0] $end
$var wire 32 s mstatus [31:0] $end
$var wire 32 t mvendorid [31:0] $end
$var wire 1 $ reset $end
$var parameter 32 u DEFAULT_mcause $end
$var parameter 32 v DEFAULT_mepc $end
$var parameter 32 w DEFAULT_mtvec $end
$var reg 32 x csr_read_data [31:0] $end
$var reg 32 y mcause [31:0] $end
$var reg 32 z mepc [31:0] $end
$var reg 32 { mtvec [31:0] $end
$upscope $end
$scope module data_memory $end
$var wire 32 | address [31:0] $end
$var wire 1 ! clk $end
$var wire 32 } write_data [31:0] $end
$var wire 1 9 write_enable $end
$var wire 4 ~ write_mask [3:0] $end
$var parameter 32 !" VALID_ADDRESS_WIDTH $end
$var reg 256 "" read_data [255:0] $end
$var integer 32 #" i [31:0] $end
$upscope $end
$scope module exception_detector $end
$var wire 1 $" imm_0 $end
$var wire 2 %" next_pc_lsbs [1:0] $end
$var wire 7 &" opcode [6:0] $end
$var wire 7 '" funct7 [6:0] $end
$var wire 3 (" funct3 [2:0] $end
$var reg 3 )" trap_status [2:0] $end
$var reg 1 & trapped $end
$upscope $end
$scope module immediate_generator $end
$var wire 20 *" raw_imm [19:0] $end
$var wire 7 +" opcode [6:0] $end
$var reg 32 ," imm [31:0] $end
$upscope $end
$scope module instruction_decoder $end
$var wire 32 -" instr [31:0] $end
$var reg 3 ." funct3 [2:0] $end
$var reg 7 /" funct7 [6:0] $end
$var reg 7 0" opcode [6:0] $end
$var reg 20 1" raw_imm [19:0] $end
$var reg 5 2" rd [4:0] $end
$var reg 5 3" rs1 [4:0] $end
$var reg 5 4" rs2 [4:0] $end
$upscope $end
$scope module instruction_memory $end
$var wire 32 5" pc [31:0] $end
$var reg 32 6" instruction [31:0] $end
$upscope $end
$scope module pc_aligner $end
$var wire 32 7" raw_next_pc [31:0] $end
$var reg 32 8" next_pc [31:0] $end
$upscope $end
$scope module pc_controller $end
$var wire 1 H branch_taken $end
$var wire 32 9" imm [31:0] $end
$var wire 1 ; jump $end
$var wire 32 :" jump_target [31:0] $end
$var wire 1 4 pc_stall $end
$var wire 1 & trapped $end
$var wire 32 ;" trap_target [31:0] $end
$var wire 32 <" pc [31:0] $end
$var reg 32 =" next_pc [31:0] $end
$upscope $end
$scope module pc_plus_4 $end
$var wire 32 >" pc [31:0] $end
$var reg 32 ?" pc_plus_4 [31:0] $end
$upscope $end
$scope module program_counter $end
$var wire 1 ! clk $end
$var wire 32 @" next_pc [31:0] $end
$var wire 1 $ reset $end
$var reg 32 A" pc [31:0] $end
$upscope $end
$scope module register_file $end
$var wire 1 ! clk $end
$var wire 5 B" read_reg1 [4:0] $end
$var wire 5 C" read_reg2 [4:0] $end
$var wire 32 D" write_data [31:0] $end
$var wire 1 . write_enable $end
$var wire 5 E" write_reg [4:0] $end
$var reg 32 F" read_data1 [31:0] $end
$var reg 32 G" read_data2 [31:0] $end
$upscope $end
$scope module trap_controller $end
$var wire 1 ! clk $end
$var wire 32 H" csr_read_data [31:0] $end
$var wire 32 I" pc [31:0] $end
$var wire 1 $ reset $end
$var wire 3 J" trap_status [2:0] $end
$var parameter 2 K" IDLE $end
$var parameter 2 L" READ_MTVEC $end
$var parameter 2 M" WRITE_MCAUSE $end
$var parameter 2 N" WRITE_MEPC $end
$var reg 12 O" csr_trap_address [11:0] $end
$var reg 32 P" csr_trap_write_data [31:0] $end
$var reg 1 * csr_write_enable $end
$var reg 1 @ debug_mode $end
$var reg 1 Q" ic_clean $end
$var reg 1 ) trap_done $end
$var reg 2 R" trap_handle_state [1:0] $end
$var reg 32 S" trap_target [31:0] $end
$upscope $end
$upscope $end
$upscope $end
$enddefinitions $end
$comment Show the parameter values. $end
$dumpall
b1 N"
b10 M"
b11 L"
b0 K"
b10010 !"
b1000000000000 w
b0 v
b0 u
$end
#0
$dumpvars
b0 S"
b0 R"
0Q"
b0 P"
b0 O"
b0 J"
b0 I"
b0 H"
b0 G"
b0 F"
b1 E"
b1010111100 D"
b0 C"
b0 B"
b0 A"
b100 @"
b100 ?"
b0 >"
b100 ="
b0 <"
b0 ;"
b1010111100 :"
b1010111100 9"
b100 8"
b100 7"
b101011110000000000000010010011 6"
b0 5"
b0 4"
b0 3"
b1 2"
b1010111100 1"
b10011 0"
b0 /"
b0 ."
b101011110000000000000010010011 -"
b1010111100 ,"
b10011 +"
b1010111100 *"
b0 )"
b0 ("
b0 '"
b10011 &"
b0 %"
0$"
b10010 #"
bx ""
b0 ~
b0 }
b10101111 |
b1000000000000 {
b0 z
b0 y
b0 x
b1010010010101100100101101000011 t
b1100000000000 s
b1000000000000000000000100000000 r
b1001001001101010101001000110010 q
b1100010011011100110000100110000 p
b1100010011000010110111001100001 o
b1010111100 n
b1010111100 m
b10 l
b10 k
b1 j
b0 i
b10011 h
1g
b0 f
b0 e
0d
b0 c
b0 b
b0 a
bx `
b1010111100 _
b0 ^
b0 ]
b0 \
b10011 [
0Z
0Y
b1010111100 X
b0 W
b1010111100 V
b0 U
b1010111100 T
b0 S
b1010111100 R
b101011110000000000000010010011 Q
b1010111100 P
b1010111100 O
b0 N
b1010111100 M
b1 L
b10 K
0J
0I
0H
b0 G
b0 F
b0 E
b0 D
0C
bx B
b0 A
0@
b0 ?
b0 >
b101011110000000000000010010011 =
b1010111100 <
0;
0:
09
b100 8
b10011 7
b0 6
b100 5
04
b1010111100 3
b100 2
b1 1
b0 0
b0 /
1.
b10 -
b0 ,
b0 +
0*
1)
b0 (
b0 '
0&
b0 %
1$
b1011110110000110000110011 #
0"
0!
$end
#5000
1!
#10000
0!
0$
#15000
b0 |
b10111100000000000000000000000000 R
b10111100000000000000000000000000 D"
b10111100000000000000000000000000 P
b10111100000000000000000000000000 n
b11000 T
b11000 V
b1010111100 S
b1010111100 U
0J
b10111100000000000000000000000000 M
b10111100000000000000000000000000 X
b10111100000000000000000000000000 _
b10111100000000000000000000000000 :"
b11000 <
b11000 ,"
b11000 9"
b1010111100 0
b1010111100 F"
b11000 O
b11000 m
b111 N
b111 W
b111 ]
b11000 3
b11000 *"
b11000 1"
b1 ,
b1 3"
b1 B"
b1 ?
b1 \
b1 ^
b1 b
b1 i
b1 ("
b1 ."
b10 1
b10 2"
b10 E"
b1000 8
b1000 8"
b1000 @"
b1100000001001000100010011 Q
b1100000001001000100010011 -"
b1100000001001000100010011 =
b1100000001001000100010011 6"
b1000 2
b1000 7"
b1000 ="
b1000 5
b1000 ?"
b100 6
b100 5"
b100 <"
b100 >"
b100 A"
b100 I"
1!
#20000
0!
#25000
b1 R
b1 D"
b1 P
b1 n
b0 T
b0 V
b10111100000000000000000000000000 S
b10111100000000000000000000000000 U
0J
b1 M
b1 X
b1 _
b1 :"
b0 <
b0 ,"
b0 9"
b10111100000000000000000000000000 0
b10111100000000000000000000000000 F"
b0 O
b0 m
b101 N
b101 W
b101 ]
b0 3
b0 *"
b0 1"
b10 ,
b10 3"
b10 B"
b10 ?
b10 \
b10 ^
b10 b
b10 i
b10 ("
b10 ."
b11 1
b11 2"
b11 E"
b1100 8
b1100 8"
b1100 @"
b10010000110010011 Q
b10010000110010011 -"
b10010000110010011 =
b10010000110010011 6"
b1100 2
b1100 7"
b1100 ="
b1100 5
b1100 ?"
b0 B
b0 `
b1000 6
b1000 5"
b1000 <"
b1000 >"
b1000 A"
b1000 I"
b0 ""
1!
#30000
0!
#35000
b0 R
b0 D"
b0 P
b0 n
1J
b0 M
b0 X
b0 _
b0 :"
b110 N
b110 W
b110 ]
b11 ?
b11 \
b11 ^
b11 b
b11 i
b11 ("
b11 ."
b100 1
b100 2"
b100 E"
b10000 8
b10000 8"
b10000 @"
b10011001000010011 Q
b10011001000010011 -"
b10011001000010011 =
b10011001000010011 6"
b10000 2
b10000 7"
b10000 ="
b10000 5
b10000 ?"
b1100 6
b1100 5"
b1100 <"
b1100 >"
b1100 A"
b1100 I"
1!
#40000
0!
#45000
b100111011 |
1Z
b10011101111 R
b10011101111 D"
b10011101111 P
b10011101111 n
b11001010011 T
b11001010011 V
b1010111100 S
b1010111100 U
0J
b10011101111 M
b10011101111 X
b10011101111 _
b10011101111 :"
1$"
b11001010011 <
b11001010011 ,"
b11001010011 9"
b1010111100 0
b1010111100 F"
b11001010011 O
b11001010011 m
b100 N
b100 W
b100 ]
b11001010011 3
b11001010011 *"
b11001010011 1"
b1 ,
b1 3"
b1 B"
b100 ?
b100 \
b100 ^
b100 b
b100 i
b100 ("
b100 ."
b101 1
b101 2"
b101 E"
b10100 8
b10100 8"
b10100 @"
b1100101001100001100001010010011 Q
b1100101001100001100001010010011 -"
b1100101001100001100001010010011 =
b1100101001100001100001010010011 6"
b10100 2
b10100 7"
b10100 ="
b10100 5
b10100 ?"
b10000 6
b10000 5"
b10000 <"
b10000 >"
b10000 A"
b10000 I"
1!
#50000
0!
#55000
b0 |
0Z
b1011110000000000000000000000 R
b1011110000000000000000000000 D"
b1011110000000000000000000000 P
b1011110000000000000000000000 n
b10111100000000000000000000000000 S
b10111100000000000000000000000000 U
0J
b1011110000000000000000000000 M
b1011110000000000000000000000 X
b1011110000000000000000000000 _
b1011110000000000000000000000 :"
0$"
b100 <
b100 ,"
b100 9"
b10111100000000000000000000000000 0
b10111100000000000000000000000000 F"
b100 O
b100 m
b100 T
b100 V
b1000 N
b1000 W
b1000 ]
b100 K
b100 k
b100 3
b100 *"
b100 1"
b10 ,
b10 3"
b10 B"
b101 ?
b101 \
b101 ^
b101 b
b101 i
b101 ("
b101 ."
b110 1
b110 2"
b110 E"
b11000 8
b11000 8"
b11000 @"
b10000010101001100010011 Q
b10000010101001100010011 -"
b10000010101001100010011 =
b10000010101001100010011 6"
b11000 2
b11000 7"
b11000 ="
b11000 5
b11000 ?"
bx B
bx `
b10100 6
b10100 5"
b10100 <"
b10100 >"
b10100 A"
b10100 I"
bx ""
1!
#60000
0!
#65000
b11111011110000000000000000000000 R
b11111011110000000000000000000000 D"
b11111011110000000000000000000000 P
b11111011110000000000000000000000 n
b11111011110000000000000000000000 M
b11111011110000000000000000000000 X
b11111011110000000000000000000000 _
b11111011110000000000000000000000 :"
b1001 N
b1001 W
b1001 ]
1Z
b10000000100 O
b10000000100 m
b10000000100 <
b10000000100 ,"
b10000000100 9"
b10000000100 3
b10000000100 *"
b10000000100 1"
b111 1
b111 2"
b111 E"
b11100 8
b11100 8"
b11100 @"
b1000000010000010101001110010011 Q
b1000000010000010101001110010011 -"
b1000000010000010101001110010011 =
b1000000010000010101001110010011 6"
b11100 2
b11100 7"
b11100 ="
b11100 5
b11100 ?"
b0 B
b0 `
b11000 6
b11000 5"
b11000 <"
b11000 >"
b11000 A"
b11000 I"
b0 ""
1!
#70000
0!
#75000
b101111 |
b10111100000000000000000010111100 R
b10111100000000000000000010111100 D"
b10111100000000000000000010111100 P
b10111100000000000000000010111100 n
0Z
b10111100000000000000000010111100 M
b10111100000000000000000010111100 X
b10111100000000000000000010111100 _
b10111100000000000000000010111100 :"
b10111100 O
b10111100 m
b10111100 T
b10111100 V
b10111100 <
b10111100 ,"
b10111100 9"
b11 N
b11 W
b11 ]
b10 K
b10 k
b10111100 3
b10111100 *"
b10111100 1"
b110 ?
b110 \
b110 ^
b110 b
b110 i
b110 ("
b110 ."
b1000 1
b1000 2"
b1000 E"
b100000 8
b100000 8"
b100000 @"
b1011110000010110010000010011 Q
b1011110000010110010000010011 -"
b1011110000010110010000010011 =
b1011110000010110010000010011 6"
b100000 2
b100000 7"
b100000 ="
b100000 5
b100000 ?"
b11100 6
b11100 5"
b11100 <"
b11100 >"
b11100 A"
b11100 I"
1!
#80000
0!
#85000
b111011 |
b11101100 R
b11101100 D"
b11101100 P
b11101100 n
b11101100 T
b11101100 V
b10011101111 S
b10011101111 U
0J
b11101100 M
b11101100 X
b11101100 _
b11101100 :"
b11101100 <
b11101100 ,"
b11101100 9"
b10011101111 0
b10011101111 F"
b11101100 O
b11101100 m
b10 N
b10 W
b10 ]
b11101100 3
b11101100 *"
b11101100 1"
b101 ,
b101 3"
b101 B"
b111 ?
b111 \
b111 ^
b111 b
b111 i
b111 ("
b111 ."
b1001 1
b1001 2"
b1001 E"
b100100 8
b100100 8"
b100100 @"
b1110110000101111010010010011 Q
b1110110000101111010010010011 -"
b1110110000101111010010010011 =
b1110110000101111010010010011 6"
b100100 2
b100100 7"
b100100 ="
b100100 5
b100100 ?"
b100000 6
b100000 5"
b100000 <"
b100000 >"
b100000 A"
b100000 I"
1!
#90000
0!
#95000
b11101010 |
b1110101000 R
b1110101000 D"
b1110101000 P
b1110101000 n
b1010111100 S
b1010111100 U
b1110101000 M
b1110101000 X
b1110101000 _
b1110101000 :"
b11101100 /
b11101100 a
b11101100 G"
b1010111100 0
b1010111100 F"
b0 O
b0 m
b11101100 T
b11101100 V
b0 N
b0 W
b0 ]
b1 K
b1 k
b0 <
b0 ,"
b0 9"
b0 3
b0 *"
b0 1"
b1001 +
b1001 4"
b1001 C"
b1 ,
b1 3"
b1 B"
b0 ?
b0 \
b0 ^
b0 b
b0 i
b0 ("
b0 ."
b1010 1
b1010 2"
b1010 E"
b110011 7
b110011 [
b110011 h
b110011 &"
b110011 +"
b110011 0"
b101000 8
b101000 8"
b101000 @"
b100100001000010100110011 Q
b100100001000010100110011 -"
b100100001000010100110011 =
b100100001000010100110011 6"
b101000 2
b101000 7"
b101000 ="
b101000 5
b101000 ?"
b100100 6
b100100 5"
b100100 <"
b100100 >"
b100100 A"
b100100 I"
1!
#100000
0!
#105000
b1011000100 |
b1011101111111111101100010001 R
b1011101111111111101100010001 D"
b1011101111111111101100010001 P
b1011101111111111101100010001 n
b1011101111111111101100010001 M
b1011101111111111101100010001 X
b1011101111111111101100010001 _
b1011101111111111101100010001 :"
b1 N
b1 W
b1 ]
b10011101111 T
b10011101111 V
b1011110000000000000000000000 S
b1011110000000000000000000000 U
1Y
b10011101111 /
b10011101111 a
b10011101111 G"
b1011110000000000000000000000 0
b1011110000000000000000000000 F"
b100000 >
b100000 '"
b100000 /"
b101 +
b101 4"
b101 C"
b110 ,
b110 3"
b110 B"
b1011 1
b1011 2"
b1011 E"
b101100 8
b101100 8"
b101100 @"
b1000000010100110000010110110011 Q
b1000000010100110000010110110011 -"
b1000000010100110000010110110011 =
b1000000010100110000010110110011 6"
b101100 2
b101100 7"
b101100 ="
b101100 5
b101100 ?"
bx B
bx `
b101000 6
b101000 5"
b101000 <"
b101000 >"
b101000 A"
b101000 I"
bx ""
1!
#110000
0!
#115000
b0 |
b11110111100000000000000000000000 R
b11110111100000000000000000000000 D"
b11110111100000000000000000000000 P
b11110111100000000000000000000000 n
b1 T
b1 V
b11111011110000000000000000000000 S
b11111011110000000000000000000000 U
0J
b11110111100000000000000000000000 M
b11110111100000000000000000000000 X
b11110111100000000000000000000000 _
b11110111100000000000000000000000 :"
0Y
b1 /
b1 a
b1 G"
b11111011110000000000000000000000 0
b11111011110000000000000000000000 F"
b111 N
b111 W
b111 ]
b0 >
b0 '"
b0 /"
b11 +
b11 4"
b11 C"
b111 ,
b111 3"
b111 B"
b1 ?
b1 \
b1 ^
b1 b
b1 i
b1 ("
b1 ."
b1100 1
b1100 2"
b1100 E"
b110000 8
b110000 8"
b110000 @"
b1100111001011000110011 Q
b1100111001011000110011 -"
b1100111001011000110011 =
b1100111001011000110011 6"
b110000 2
b110000 7"
b110000 ="
b110000 5
b110000 ?"
b101100 6
b101100 5"
b101100 <"
b101100 >"
b101100 A"
b101100 I"
1!
#120000
0!
#125000
1J
b0 R
b0 D"
b0 P
b0 n
b10111100000000000000000000000000 T
b10111100000000000000000000000000 V
b1010111100 S
b1010111100 U
b0 M
b0 X
b0 _
b0 :"
b10111100000000000000000000000000 /
b10111100000000000000000000000000 a
b10111100000000000000000000000000 G"
b1010111100 0
b1010111100 F"
b101 N
b101 W
b101 ]
b10 +
b10 4"
b10 C"
b1 ,
b1 3"
b1 B"
b10 ?
b10 \
b10 ^
b10 b
b10 i
b10 ("
b10 ."
b1101 1
b1101 2"
b1101 E"
b110100 8
b110100 8"
b110100 @"
b1000001010011010110011 Q
b1000001010011010110011 -"
b1000001010011010110011 =
b1000001010011010110011 6"
b110100 2
b110100 7"
b110100 ="
b110100 5
b110100 ?"
b0 B
b0 `
b110000 6
b110000 5"
b110000 <"
b110000 >"
b110000 A"
b110000 I"
b0 ""
1!
#130000
0!
#135000
b1 R
b1 D"
b1 P
b1 n
0J
b1 M
b1 X
b1 _
b1 :"
b110 N
b110 W
b110 ]
b11 ?
b11 \
b11 ^
b11 b
b11 i
b11 ("
b11 ."
b1110 1
b1110 2"
b1110 E"
b111000 8
b111000 8"
b111000 @"
b1000001011011100110011 Q
b1000001011011100110011 -"
b1000001011011100110011 =
b1000001011011100110011 6"
b111000 2
b111000 7"
b111000 ="
b111000 5
b111000 ?"
b110100 6
b110100 5"
b110100 <"
b110100 >"
b110100 A"
b110100 I"
1!
#140000
0!
#145000
b101111 |
b1001011100000000000000010111100 R
b1001011100000000000000010111100 D"
b1001011100000000000000010111100 P
b1001011100000000000000010111100 n
b10111100000000000000000010111100 T
b10111100000000000000000010111100 V
b11110111100000000000000000000000 S
b11110111100000000000000000000000 U
b1001011100000000000000010111100 M
b1001011100000000000000010111100 X
b1001011100000000000000010111100 _
b1001011100000000000000010111100 :"
b10111100000000000000000010111100 /
b10111100000000000000000010111100 a
b10111100000000000000000010111100 G"
b11110111100000000000000000000000 0
b11110111100000000000000000000000 F"
b100 N
b100 W
b100 ]
b1000 +
b1000 4"
b1000 C"
b1100 ,
b1100 3"
b1100 B"
b100 ?
b100 \
b100 ^
b100 b
b100 i
b100 ("
b100 ."
b1111 1
b1111 2"
b1111 E"
b111100 8
b111100 8"
b111100 @"
b100001100100011110110011 Q
b100001100100011110110011 -"
b100001100100011110110011 =
b100001100100011110110011 6"
b111100 2
b111100 7"
b111100 ="
b111100 5
b111100 ?"
b111000 6
b111000 5"
b111000 <"
b111000 >"
b111000 A"
b111000 I"
1!
#150000
0!
#155000
b0 |
b1111011110000000000000000000000 R
b1111011110000000000000000000000 D"
b1111011110000000000000000000000 P
b1111011110000000000000000000000 n
b1 T
b1 V
0J
b1111011110000000000000000000000 M
b1111011110000000000000000000000 X
b1111011110000000000000000000000 _
b1111011110000000000000000000000 :"
b1 /
b1 a
b1 G"
b1000 N
b1000 W
b1000 ]
b11 +
b11 4"
b11 C"
b101 ?
b101 \
b101 ^
b101 b
b101 i
b101 ("
b101 ."
b10000 1
b10000 2"
b10000 E"
b1000000 8
b1000000 8"
b1000000 @"
b1101100101100000110011 Q
b1101100101100000110011 -"
b1101100101100000110011 =
b1101100101100000110011 6"
b1000000 2
b1000000 7"
b1000000 ="
b1000000 5
b1000000 ?"
b111100 6
b111100 5"
b111100 <"
b111100 >"
b111100 A"
b111100 I"
1!
#160000
0!
#165000
b11111011110000000000000000000000 R
b11111011110000000000000000000000 D"
b11111011110000000000000000000000 P
b11111011110000000000000000000000 n
b11111011110000000000000000000000 M
b11111011110000000000000000000000 X
b11111011110000000000000000000000 _
b11111011110000000000000000000000 :"
b1001 N
b1001 W
b1001 ]
1Y
b100000 >
b100000 '"
b100000 /"
b10001 1
b10001 2"
b10001 E"
b1000100 8
b1000100 8"
b1000100 @"
b1000000001101100101100010110011 Q
b1000000001101100101100010110011 -"
b1000000001101100101100010110011 =
b1000000001101100101100010110011 6"
b1000100 2
b1000100 7"
b1000100 ="
b1000100 5
b1000100 ?"
b1000000 6
b1000000 5"
b1000000 <"
b1000000 >"
b1000000 A"
b1000000 I"
1!
#170000
0!
#175000
b1011000100 |
b11111011111111111111101100010001 R
b11111011111111111111101100010001 D"
b11111011111111111111101100010001 P
b11111011111111111111101100010001 n
b11111011110000000000000000000000 T
b11111011110000000000000000000000 V
b1011101111111111101100010001 S
b1011101111111111101100010001 U
b11111011111111111111101100010001 M
b11111011111111111111101100010001 X
b11111011111111111111101100010001 _
b11111011111111111111101100010001 :"
0Y
b11111011110000000000000000000000 /
b11111011110000000000000000000000 a
b11111011110000000000000000000000 G"
b1011101111111111101100010001 0
b1011101111111111101100010001 F"
b11 N
b11 W
b11 ]
b0 >
b0 '"
b0 /"
b111 +
b111 4"
b111 C"
b1011 ,
b1011 3"
b1011 B"
b110 ?
b110 \
b110 ^
b110 b
b110 i
b110 ("
b110 ."
b10010 1
b10010 2"
b10010 E"
b1001000 8
b1001000 8"
b1001000 @"
b11101011110100100110011 Q
b11101011110100100110011 -"
b11101011110100100110011 =
b11101011110100100110011 6"
b1001000 2
b1001000 7"
b1001000 ="
b1001000 5
b1001000 ?"
b1000100 6
b1000100 5"
b1000100 <"
b1000100 >"
b1000100 A"
b1000100 I"
1!
#180000
0!
#185000
b0 |
b1011100000000000000000000000 R
b1011100000000000000000000000 D"
b1011100000000000000000000000 P
b1011100000000000000000000000 n
b1011101111111111101100010001 T
b1011101111111111101100010001 V
b11111011110000000000000000000000 S
b11111011110000000000000000000000 U
b1011100000000000000000000000 M
b1011100000000000000000000000 X
b1011100000000000000000000000 _
b1011100000000000000000000000 :"
b1011101111111111101100010001 /
b1011101111111111101100010001 a
b1011101111111111101100010001 G"
b11111011110000000000000000000000 0
b11111011110000000000000000000000 F"
b10 N
b10 W
b10 ]
b1011 +
b1011 4"
b1011 C"
b111 ,
b111 3"
b111 B"
b111 ?
b111 \
b111 ^
b111 b
b111 i
b111 ("
b111 ."
b10011 1
b10011 2"
b10011 E"
b1001100 8
b1001100 8"
b1001100 @"
b101100111111100110110011 Q
b101100111111100110110011 -"
b101100111111100110110011 =
b101100111111100110110011 6"
b1001100 2
b1001100 7"
b1001100 ="
b1001100 5
b1001100 ?"
bx B
bx `
b1001000 6
b1001000 5"
b1001000 <"
b1001000 >"
b1001000 A"
b1001000 I"
bx ""
1!
#190000
0!
#195000
b10110000 |
b1011000000 P
b1011000000 n
b1010111100 S
b1010111100 U
b1011000000 M
b1011000000 X
b1011000000 _
b1011000000 :"
b1010111100 0
b1010111100 F"
b0 R
b0 D"
b100 O
b100 m
b100 T
b100 V
b1111 %
b1111 f
b1111 ~
b1011101111111111101100010001 A
b1011101111111111101100010001 c
b1011101111111111101100010001 }
b0 N
b0 W
b0 ]
19
b0 -
b0 l
0.
b10 K
b10 k
b100 <
b100 ,"
b100 9"
b0 1
b0 2"
b0 E"
b100 3
b100 *"
b100 1"
b1 ,
b1 3"
b1 B"
b10 ?
b10 \
b10 ^
b10 b
b10 i
b10 ("
b10 ."
b100011 7
b100011 [
b100011 h
b100011 &"
b100011 +"
b100011 0"
b1010000 8
b1010000 8"
b1010000 @"
b101100001010001000100011 Q
b101100001010001000100011 -"
b101100001010001000100011 =
b101100001010001000100011 6"
b1010000 2
b1010000 7"
b1010000 ="
b1010000 5
b1010000 ?"
b0 B
b0 `
b1001100 6
b1001100 5"
b1001100 <"
b1001100 >"
b1001100 A"
b1001100 I"
b0 ""
1!
#200000
0!
#205000
1d
b1011000011 P
b1011000011 n
b1011000011 M
b1011000011 X
b1011000011 _
b1011000011 :"
1$"
b111 O
b111 m
b111 T
b111 V
b111 <
b111 ,"
b111 9"
b1110101000 /
b1110101000 a
b1110101000 G"
b0 %
b0 f
b0 ~
b11101010000000001110101000 A
b11101010000000001110101000 c
b11101010000000001110101000 }
b111 3
b111 *"
b111 1"
b1010 +
b1010 4"
b1010 C"
b1 ?
b1 \
b1 ^
b1 b
b1 i
b1 ("
b1 ."
b1010100 8
b1010100 8"
b1010100 @"
b101000001001001110100011 Q
b101000001001001110100011 -"
b101000001001001110100011 =
b101000001001001110100011 6"
b1010100 2
b1010100 7"
b1010100 ="
b1010100 5
b1010100 ?"
bx B
bx `
b1010000 6
b1010000 5"
b1010000 <"
b1010000 >"
b1010000 A"
b1010000 I"
bx ""
b100 #"
1!
#210000
0!
#215000
b1011000000 P
b1011000000 n
b1011000000 M
b1011000000 X
b1011000000 _
b1011000000 :"
0$"
b100 O
b100 m
b100 T
b100 V
b100 <
b100 ,"
b100 9"
b1001011100000000000000010111100 /
b1001011100000000000000010111100 a
b1001011100000000000000010111100 G"
0d
b1 %
b1 f
b1 ~
b10111100101111001011110010111100 A
b10111100101111001011110010111100 c
b10111100101111001011110010111100 }
b100 3
b100 *"
b100 1"
b1111 +
b1111 4"
b1111 C"
b0 ?
b0 \
b0 ^
b0 b
b0 i
b0 ("
b0 ."
b1011000 8
b1011000 8"
b1011000 @"
b111100001000001000100011 Q
b111100001000001000100011 -"
b111100001000001000100011 =
b111100001000001000100011 6"
b1011000 2
b1011000 7"
b1011000 ="
b1011000 5
b1011000 ?"
b1010100 6
b1010100 5"
b1010100 <"
b1010100 >"
b1010100 A"
b1010100 I"
bx00001011101111111111101100010001xxxxxxxxxxxxxxxxxxxxxxxxxxxxxxxxxxxxxxxxxxxxxxxxxxxxxxxxxxxxxxxxxxxxxxxxxxxxxxxxxxxxxxxxxxxxxxxxxxxxxxxxxxxxxxxxxxxxxxxxxxxxxxxx ""
b100 #"
1!
#220000
0!
