RV32I/testbenches/results/waveforms/RV32I46F_tb_result.vcd
$date
	Mon May 19 18:18:10 2025
$end
$version
	Icarus Verilog
$end
$timescale
	1ps
$end
$scope module RV32I46F_tb $end
$scope module rv32i46f $end
$var wire 1 ! clk $end
$var wire 1 " csr_write_enable $end
$var wire 32 # dbg_instruction [31:0] $end
$var wire 1 $ reset $end
$var wire 4 % write_mask [3:0] $end
$var wire 1 & trapped $end
$var wire 32 ' trap_target [31:0] $end
$var wire 3 ( trap_status [2:0] $end
$var wire 1 ) trap_done $end
$var wire 1 * tc_csr_write_enable $end
$var wire 5 + rs2 [4:0] $end
$var wire 5 , rs1 [4:0] $end
$var wire 3 - register_file_write_data_select [2:0] $end
$var wire 1 . register_file_write $end
$var wire 32 / read_data2 [31:0] $end
$var wire 32 0 read_data1 [31:0] $end
$var wire 5 1 rd [4:0] $end
$var wire 20 2 raw_imm [19:0] $end
$var wire 3 3 pcc_op [2:0] $end
$var wire 32 4 pc_plus_4_signal [31:0] $end
$var wire 32 5 pc [31:0] $end
$var wire 7 6 opcode [6:0] $end
$var wire 32 7 next_pc [31:0] $end
$var wire 1 8 memory_write $end
$var wire 1 9 memory_read $end
$var wire 32 : imm [31:0] $end
$var wire 32 ; im_instruction [31:0] $end
$var wire 7 < funct7 [6:0] $end
$var wire 3 = funct3 [2:0] $end
$var wire 1 > debug_mode $end
$var wire 32 ? data_memory_write_data [31:0] $end
$var wire 32 @ data_memory_read_data [31:0] $end
$var wire 1 A cu_csr_write_enable $end
$var wire 32 B csr_trap_write_data [31:0] $end
$var wire 12 C csr_trap_address [11:0] $end
$var wire 32 D csr_read_data [31:0] $end
$var wire 32 E byte_enable_logic_register_file_write_data [31:0] $end
$var wire 32 F branch_target [31:0] $end
$var wire 1 G branch_taken $end
$var wire 1 H branch $end
$var wire 1 I alu_zero $end
$var wire 3 J alu_src_B_select [2:0] $end
$var wire 2 K alu_src_A_select [1:0] $end
$var wire 32 L alu_result [31:0] $end
$var wire 4 M alu_op [3:0] $end
$var reg 12 N csr_address [11:0] $end
$var reg 32 O csr_write_data [31:0] $end
$var reg 32 P instruction [31:0] $end
$var reg 32 Q register_file_write_data [31:0] $end
$var reg 32 R src_A [31:0] $end
$var reg 32 S src_B [31:0] $end
$scope module alu $end
$var wire 32 T src_A [31:0] $end
$var wire 32 U src_B [31:0] $end
$var wire 4 V alu_op [3:0] $end
$var reg 32 W alu_result [31:0] $end
$var reg 1 I alu_zero $end
$upscope $end
$scope module alu_controller $end
$var wire 1 X funct7_5 $end
$var wire 1 Y imm_10 $end
$var wire 7 Z opcode [6:0] $end
$var wire 3 [ funct3 [2:0] $end
$var reg 4 \ alu_op [3:0] $end
$upscope $end
$scope module branch_logic $end
$var wire 1 I alu_zero $end
$var wire 32 ] pc [31:0] $end
$var wire 32 ^ imm [31:0] $end
$var wire 3 _ funct3 [2:0] $end
$var wire 1 H branch $end
$var reg 1 G branch_taken $end
$var reg 32 ` branch_target [31:0] $end
$upscope $end
$scope module byte_enable_logic $end
$var wire 32 a address [31:0] $end
$var wire 32 b data_memory_read_data [31:0] $end
$var wire 32 c register_file_read_data [31:0] $end
$var wire 1 8 memory_write $end
$var wire 1 9 memory_read $end
$var wire 3 d funct3 [2:0] $end
$var reg 32 e data_memory_write_data [31:0] $end
$var reg 1 f misaligned $end
$var reg 32 g register_file_write_data [31:0] $end
$var reg 4 h write_mask [3:0] $end
$upscope $end
$scope module control_unit $end
$var wire 1 G branch_taken $end
$var wire 1 i write_done $end
$var wire 1 & trapped $end
$var wire 1 ) trap_done $end
$var wire 7 j opcode [6:0] $end
$var wire 3 k funct3 [2:0] $end
$var reg 2 l alu_src_A_select [1:0] $end
$var reg 3 m alu_src_B_select [2:0] $end
$var reg 1 H branch $end
$var reg 1 A csr_write_enable $end
$var reg 1 9 memory_read $end
$var reg 1 8 memory_write $end
$var reg 3 n pcc_op [2:0] $end
$var reg 1 . register_file_write $end
$var reg 3 o register_file_write_data_select [2:0] $end
$upscope $end
$scope module csr_file $end
$var wire 1 ! clk $end
$var wire 12 p csr_address [11:0] $end
$var wire 32 q csr_write_data [31:0] $end
$var wire 1 " csr_write_enable $end
$var wire 32 r marchid [31:0] $end
$var wire 32 s mhartid [31:0] $end
$var wire 32 t mimpid [31:0] $end
$var wire 32 u misa [31:0] $end
$var wire 32 v mstatus [31:0] $end
$var wire 32 w mvendorid [31:0] $end
$var wire 1 $ reset $end
$var parameter 32 x DEFAULT_mcause $end
$var parameter 32 y DEFAULT_mepc $end
$var parameter 32 z DEFAULT_mtvec $end
$var reg 32 { csr_read_data [31:0] $end
$var reg 32 | mcause [31:0] $end
$var reg 32 } mepc [31:0] $end
$var reg 32 ~ mtvec [31:0] $end
$upscope $end
$scope module data_memory $end
$var wire 32 !" address [31:0] $end
$var wire 1 ! clk $end
$var wire 32 "" write_data [31:0] $end
$var wire 1 8 write_enable $end
$var wire 4 #" write_mask [3:0] $end
$var parameter 32 $" VALID_ADDRESS_WIDTH $end
$var reg 256 %" read_data [255:0] $end
$var integer 32 &" i [31:0] $end
$upscope $end
$scope module exception_detector $end
$var wire 2 '" b_target_lsbs [1:0] $end
$var wire 12 (" funct12 [11:0] $end
$var wire 2 )" j_target_lsbs [1:0] $end
$var wire 7 *" opcode [6:0] $end
$var wire 3 +" funct3 [2:0] $end
$var reg 3 ," trap_status [2:0] $end
$var reg 1 & trapped $end
$upscope $end
$scope module immediate_generator $end
$var wire 20 -" raw_imm [19:0] $end
$var wire 7 ." opcode [6:0] $end
$var reg 32 /" imm [31:0] $end
$upscope $end
$scope module instruction_decoder $end
$var wire 32 0" instruction [31:0] $end
$var reg 3 1" funct3 [2:0] $end
$var reg 7 2" funct7 [6:0] $end
$var reg 7 3" opcode [6:0] $end
$var reg 20 4" raw_imm [19:0] $end
$var reg 5 5" rd [4:0] $end
$var reg 5 6" rs1 [4:0] $end
$var reg 5 7" rs2 [4:0] $end
$upscope $end
$scope module instruction_memory $end
$var wire 32 8" pc [31:0] $end
$var reg 32 9" instruction [31:0] $end
$upscope $end
$scope module pc_controller $end
$var wire 32 :" branch_target [31:0] $end
$var wire 32 ;" jump_target [31:0] $end
$var wire 3 <" pcc_op [2:0] $end
$var wire 32 =" trap_target [31:0] $end
$var wire 32 >" pc [31:0] $end
$var reg 32 ?" next_pc [31:0] $end
$upscope $end
$scope module pc_plus_4 $end
$var wire 32 @" pc [31:0] $end
$var reg 32 A" pc_plus_4 [31:0] $end
$upscope $end
$scope module program_counter $end
$var wire 1 ! clk $end
$var wire 32 B" next_pc [31:0] $end
$var wire 1 $ reset $end
$var reg 32 C" pc [31:0] $end
$upscope $end
$scope module register_file $end
$var wire 1 ! clk $end
$var wire 5 D" read_reg1 [4:0] $end
$var wire 5 E" read_reg2 [4:0] $end
$var wire 32 F" write_data [31:0] $end
$var wire 1 . write_enable $end
$var wire 5 G" write_reg [4:0] $end
$var reg 32 H" read_data1 [31:0] $end
$var reg 32 I" read_data2 [31:0] $end
$upscope $end
$scope module trap_controller $end
$var wire 1 ! clk $end
$var wire 32 J" csr_read_data [31:0] $end
$var wire 32 K" pc [31:0] $end
$var wire 1 $ reset $end
$var wire 3 L" trap_status [2:0] $end
$var parameter 2 M" IDLE $end
$var parameter 2 N" READ_MTVEC $end
$var parameter 2 O" WRITE_MCAUSE $end
$var parameter 2 P" WRITE_MEPC $end
$var reg 12 Q" csr_trap_address [11:0] $end
$var reg 32 R" csr_trap_write_data [31:0] $end
$var reg 1 * csr_write_enable $end
$var reg 1 > debug_mode $end
$var reg 1 S" ic_clean $end
$var reg 2 T" next_trap_handle_state [1:0] $end
$var reg 1 ) trap_done $end
$var reg 2 U" trap_handle_state [1:0] $end
$var reg 32 V" trap_target [31:0] $end
$upscope $end
$upscope $end
$upscope $end
$enddefinitions $end
$comment Show the parameter values. $end
$dumpall
b1 P"
b10 O"
b11 N"
b0 M"
b10010 $"
b1000000000000 z
b0 y
b0 x
$end
#0
$dumpvars
b0 V"
b0 U"
b0 T"
0S"
b0 R"
b0 Q"
b0 L"
b0 K"
b0 J"
b0 I"
b0 H"
b1 G"
b1010111100 F"
b0 E"
b0 D"
b0 C"
b100 B"
b100 A"
b0 @"
b100 ?"
b0 >"
b0 ="
b0 <"
b1010111100 ;"
b0 :"
b101011110000000000000010010011 9"
b0 8"
b0 7"
b0 6"
b1 5"
b1010111100 4"
b10011 3"
b0 2"
b0 1"
b101011110000000000000010010011 0"
b1010111100 /"
b10011 ."
b1010111100 -"
b0 ,"
b0 +"
b10011 *"
b0 )"
b1010111100 ("
b0 '"
b10010 &"
bx %"
b0 #"
b0 ""
b10101111 !"
b1000000000000 ~
b0 }
b0 |
b0 {
b1010010010101100100101101000011 w
b1100000000000 v
b1000000000000000000000100000000 u
b1001001001101010101001000110010 t
b1100010011011100110000100110000 s
b1100010011000010110111001100001 r
b1010111100 q
b1010111100 p
b10 o
b0 n
b10 m
b1 l
b0 k
b10011 j
1i
b0 h
b0 g
0f
b0 e
b0 d
b0 c
bx b
b1010111100 a
b0 `
b0 _
b1010111100 ^
b0 ]
b0 \
b0 [
b10011 Z
0Y
0X
b1010111100 W
b0 V
b1010111100 U
b0 T
b1010111100 S
b0 R
b1010111100 Q
b101011110000000000000010010011 P
b1010111100 O
b1010111100 N
b0 M
b1010111100 L
b1 K
b10 J
0I
0H
0G
b0 F
b0 E
b0 D
b0 C
b0 B
0A
bx @
b0 ?
0>
b0 =
b0 <
b101011110000000000000010010011 ;
b1010111100 :
09
08
b100 7
b10011 6
b0 5
b100 4
b0 3
b1010111100 2
b1 1
b0 0
b0 /
1.
b10 -
b0 ,
b0 +
0*
1)
b0 (
b0 '
0&
b0 %
1$
b1011110110000110000110011 #
0"
0!
$end
#5000
1!
#10000
0!
0$
#15000
b0 !"
b10111100000000000000000000000000 Q
b10111100000000000000000000000000 F"
b10111100000000000000000000000000 O
b10111100000000000000000000000000 q
b11000 S
b11000 U
b1010111100 R
b1010111100 T
0I
b10111100000000000000000000000000 L
b10111100000000000000000000000000 W
b10111100000000000000000000000000 a
b10111100000000000000000000000000 ;"
b11000 ("
b11000 :
b11000 ^
b11000 /"
b1010111100 0
b1010111100 H"
b11000 N
b11000 p
b111 M
b111 V
b111 \
b11000 2
b11000 -"
b11000 4"
b1 ,
b1 6"
b1 D"
b1 =
b1 [
b1 _
b1 d
b1 k
b1 +"
b1 1"
b10 1
b10 5"
b10 G"
b1100000001001000100010011 P
b1100000001001000100010011 0"
b1100000001001000100010011 ;
b1100000001001000100010011 9"
b1000 7
b1000 ?"
b1000 B"
b1000 4
b1000 A"
b100 5
b100 ]
b100 8"
b100 >"
b100 @"
b100 C"
b100 K"
1!
#20000
0!
#25000
b1 )"
b1 Q
b1 F"
b1 O
b1 q
b0 S
b0 U
b10111100000000000000000000000000 R
b10111100000000000000000000000000 T
0I
b1 L
b1 W
b1 a
b1 ;"
b0 ("
b0 :
b0 ^
b0 /"
b10111100000000000000000000000000 0
b10111100000000000000000000000000 H"
b0 N
b0 p
b101 M
b101 V
b101 \
b0 2
b0 -"
b0 4"
b10 ,
b10 6"
b10 D"
b10 =
b10 [
b10 _
b10 d
b10 k
b10 +"
b10 1"
b11 1
b11 5"
b11 G"
b10010000110010011 P
b10010000110010011 0"
b10010000110010011 ;
b10010000110010011 9"
b1100 7
b1100 ?"
b1100 B"
b1100 4
b1100 A"
b0 @
b0 b
b1000 5
b1000 ]
b1000 8"
b1000 >"
b1000 @"
b1000 C"
b1000 K"
b0 %"
1!
#30000
0!
#35000
b0 )"
b0 Q
b0 F"
b0 O
b0 q
1I
b0 L
b0 W
b0 a
b0 ;"
b110 M
b110 V
b110 \
b11 =
b11 [
b11 _
b11 d
b11 k
b11 +"
b11 1"
b100 1
b100 5"
b100 G"
b10011001000010011 P
b10011001000010011 0"
b10011001000010011 ;
b10011001000010011 9"
b10000 7
b10000 ?"
b10000 B"
b10000 4
b10000 A"
b1100 5
b1100 ]
b1100 8"
b1100 >"
b1100 @"
b1100 C"
b1100 K"
1!
#40000
0!
#45000
b11 )"
b100111011 !"
1Y
b10011101111 Q
b10011101111 F"
b10011101111 O
b10011101111 q
b11001010011 S
b11001010011 U
b1010111100 R
b1010111100 T
0I
b10011101111 L
b10011101111 W
b10011101111 a
b10011101111 ;"
b11001010011 ("
b11001010011 :
b11001010011 ^
b11001010011 /"
b1010111100 0
b1010111100 H"
b11001010011 N
b11001010011 p
b100 M
b100 V
b100 \
b11001010011 2
b11001010011 -"
b11001010011 4"
b1 ,
b1 6"
b1 D"
b100 =
b100 [
b100 _
b100 d
b100 k
b100 +"
b100 1"
b101 1
b101 5"
b101 G"
b1100101001100001100001010010011 P
b1100101001100001100001010010011 0"
b1100101001100001100001010010011 ;
b1100101001100001100001010010011 9"
b10100 7
b10100 ?"
b10100 B"
b10100 4
b10100 A"
b10000 5
b10000 ]
b10000 8"
b10000 >"
b10000 @"
b10000 C"
b10000 K"
1!
#50000
0!
#55000
b0 )"
b0 !"
0Y
b1011110000000000000000000000 Q
b1011110000000000000000000000 F"
b1011110000000000000000000000 O
b1011110000000000000000000000 q
b10111100000000000000000000000000 R
b10111100000000000000000000000000 T
0I
b1011110000000000000000000000 L
b1011110000000000000000000000 W
b1011110000000000000000000000 a
b1011110000000000000000000000 ;"
b100 ("
b100 :
b100 ^
b100 /"
b10111100000000000000000000000000 0
b10111100000000000000000000000000 H"
b100 N
b100 p
b100 S
b100 U
b1000 M
b1000 V
b1000 \
b100 J
b100 m
b100 2
b100 -"
b100 4"
b10 ,
b10 6"
b10 D"
b101 =
b101 [
b101 _
b101 d
b101 k
b101 +"
b101 1"
b110 1
b110 5"
b110 G"
b10000010101001100010011 P
b10000010101001100010011 0"
b10000010101001100010011 ;
b10000010101001100010011 9"
b11000 7
b11000 ?"
b11000 B"
b11000 4
b11000 A"
bx @
bx b
b10100 5
b10100 ]
b10100 8"
b10100 >"
b10100 @"
b10100 C"
b10100 K"
bx %"
1!
#60000
0!
#65000
b11111011110000000000000000000000 Q
b11111011110000000000000000000000 F"
b11111011110000000000000000000000 O
b11111011110000000000000000000000 q
b11111011110000000000000000000000 L
b11111011110000000000000000000000 W
b11111011110000000000000000000000 a
b11111011110000000000000000000000 ;"
b1001 M
b1001 V
b1001 \
1Y
b10000000100 ("
b10000000100 N
b10000000100 p
b10000000100 :
b10000000100 ^
b10000000100 /"
b10000000100 2
b10000000100 -"
b10000000100 4"
b111 1
b111 5"
b111 G"
b1000000010000010101001110010011 P
b1000000010000010101001110010011 0"
b1000000010000010101001110010011 ;
b1000000010000010101001110010011 9"
b11100 7
b11100 ?"
b11100 B"
b11100 4
b11100 A"
b0 @
b0 b
b11000 5
b11000 ]
b11000 8"
b11000 >"
b11000 @"
b11000 C"
b11000 K"
b0 %"
1!
#70000
0!
#75000
b101111 !"
b10111100000000000000000010111100 Q
b10111100000000000000000010111100 F"
b10111100000000000000000010111100 O
b10111100000000000000000010111100 q
0Y
b10111100000000000000000010111100 L
b10111100000000000000000010111100 W
b10111100000000000000000010111100 a
b10111100000000000000000010111100 ;"
b10111100 ("
b10111100 N
b10111100 p
b10111100 S
b10111100 U
b10111100 :
b10111100 ^
b10111100 /"
b11 M
b11 V
b11 \
b10 J
b10 m
b10111100 2
b10111100 -"
b10111100 4"
b110 =
b110 [
b110 _
b110 d
b110 k
b110 +"
b110 1"
b1000 1
b1000 5"
b1000 G"
b1011110000010110010000010011 P
b1011110000010110010000010011 0"
b1011110000010110010000010011 ;
b1011110000010110010000010011 9"
b100000 7
b100000 ?"
b100000 B"
b100000 4
b100000 A"
b11100 5
b11100 ]
b11100 8"
b11100 >"
b11100 @"
b11100 C"
b11100 K"
1!
#80000
0!
#85000
b111011 !"
b11101100 Q
b11101100 F"
b11101100 O
b11101100 q
b11101100 S
b11101100 U
b10011101111 R
b10011101111 T
0I
b11101100 L
b11101100 W
b11101100 a
b11101100 ;"
b11101100 ("
b11101100 :
b11101100 ^
b11101100 /"
b10011101111 0
b10011101111 H"
b11101100 N
b11101100 p
b10 M
b10 V
b10 \
b11101100 2
b11101100 -"
b11101100 4"
b101 ,
b101 6"
b101 D"
b111 =
b111 [
b111 _
b111 d
b111 k
b111 +"
b111 1"
b1001 1
b1001 5"
b1001 G"
b1110110000101111010010010011 P
b1110110000101111010010010011 0"
b1110110000101111010010010011 ;
b1110110000101111010010010011 9"
b100100 7
b100100 ?"
b100100 B"
b100100 4
b100100 A"
b100000 5
b100000 ]
b100000 8"
b100000 >"
b100000 @"
b100000 C"
b100000 K"
1!
#90000
0!
#95000
b0 )"
b11101010 !"
b1110101000 Q
b1110101000 F"
b1110101000 O
b1110101000 q
b1010111100 R
b1010111100 T
b1110101000 L
b1110101000 W
b1110101000 a
b1110101000 ;"
b0 ("
b11101100 /
b11101100 c
b11101100 I"
b1010111100 0
b1010111100 H"
b0 N
b0 p
b11101100 S
b11101100 U
b0 M
b0 V
b0 \
b1 J
b1 m
b0 :
b0 ^
b0 /"
b0 2
b0 -"
b0 4"
b1001 +
b1001 7"
b1001 E"
b1 ,
b1 6"
b1 D"
b0 =
b0 [
b0 _
b0 d
b0 k
b0 +"
b0 1"
b1010 1
b1010 5"
b1010 G"
b110011 6
b110011 Z
b110011 j
b110011 *"
b110011 ."
b110011 3"
b100100001000010100110011 P
b100100001000010100110011 0"
b100100001000010100110011 ;
b100100001000010100110011 9"
b101000 7
b101000 ?"
b101000 B"
b101000 4
b101000 A"
b100100 5
b100100 ]
b100100 8"
b100100 >"
b100100 @"
b100100 C"
b100100 K"
1!
#100000
0!
#105000
b1 )"
b1011000100 !"
b1011101111111111101100010001 Q
b1011101111111111101100010001 F"
b1011101111111111101100010001 O
b1011101111111111101100010001 q
b1011101111111111101100010001 L
b1011101111111111101100010001 W
b1011101111111111101100010001 a
b1011101111111111101100010001 ;"
b1 M
b1 V
b1 \
b10011101111 S
b10011101111 U
b1011110000000000000000000000 R
b1011110000000000000000000000 T
1X
b10011101111 /
b10011101111 c
b10011101111 I"
b1011110000000000000000000000 0
b1011110000000000000000000000 H"
b100000 <
b100000 2"
b101 +
b101 7"
b101 E"
b110 ,
b110 6"
b110 D"
b1011 1
b1011 5"
b1011 G"
b1000000010100110000010110110011 P
b1000000010100110000010110110011 0"
b1000000010100110000010110110011 ;
b1000000010100110000010110110011 9"
b101100 7
b101100 ?"
b101100 B"
b101100 4
b101100 A"
bx @
bx b
b101000 5
b101000 ]
b101000 8"
b101000 >"
b101000 @"
b101000 C"
b101000 K"
bx %"
1!
#110000
0!
#115000
b0 )"
b0 !"
b11110111100000000000000000000000 Q
b11110111100000000000000000000000 F"
b11110111100000000000000000000000 O
b11110111100000000000000000000000 q
b1 S
b1 U
b11111011110000000000000000000000 R
b11111011110000000000000000000000 T
0I
b11110111100000000000000000000000 L
b11110111100000000000000000000000 W
b11110111100000000000000000000000 a
b11110111100000000000000000000000 ;"
0X
b1 /
b1 c
b1 I"
b11111011110000000000000000000000 0
b11111011110000000000000000000000 H"
b111 M
b111 V
b111 \
b0 <
b0 2"
b11 +
b11 7"
b11 E"
b111 ,
b111 6"
b111 D"
b1 =
b1 [
b1 _
b1 d
b1 k
b1 +"
b1 1"
b1100 1
b1100 5"
b1100 G"
b1100111001011000110011 P
b1100111001011000110011 0"
b1100111001011000110011 ;
b1100111001011000110011 9"
b110000 7
b110000 ?"
b110000 B"
b110000 4
b110000 A"
b101100 5
b101100 ]
b101100 8"
b101100 >"
b101100 @"
b101100 C"
b101100 K"
1!
#120000
0!
#125000
1I
b0 )"
b0 Q
b0 F"
b0 O
b0 q
b10111100000000000000000000000000 S
b10111100000000000000000000000000 U
b1010111100 R
b1010111100 T
b0 L
b0 W
b0 a
b0 ;"
b10111100000000000000000000000000 /
b10111100000000000000000000000000 c
b10111100000000000000000000000000 I"
b1010111100 0
b1010111100 H"
b101 M
b101 V
b101 \
b10 +
b10 7"
b10 E"
b1 ,
b1 6"
b1 D"
b10 =
b10 [
b10 _
b10 d
b10 k
b10 +"
b10 1"
b1101 1
b1101 5"
b1101 G"
b1000001010011010110011 P
b1000001010011010110011 0"
b1000001010011010110011 ;
b1000001010011010110011 9"
b110100 7
b110100 ?"
b110100 B"
b110100 4
b110100 A"
b0 @
b0 b
b110000 5
b110000 ]
b110000 8"
b110000 >"
b110000 @"
b110000 C"
b110000 K"
b0 %"
1!
#130000
0!
#135000
b1 )"
b1 Q
b1 F"
b1 O
b1 q
0I
b1 L
b1 W
b1 a
b1 ;"
b110 M
b110 V
b110 \
b11 =
b11 [
b11 _
b11 d
b11 k
b11 +"
b11 1"
b1110 1
b1110 5"
b1110 G"
b1000001011011100110011 P
b1000001011011100110011 0"
b1000001011011100110011 ;
b1000001011011100110011 9"
b111000 7
b111000 ?"
b111000 B"
b111000 4
b111000 A"
b110100 5
b110100 ]
b110100 8"
b110100 >"
b110100 @"
b110100 C"
b110100 K"
1!
#140000
0!
#145000
b0 )"
b101111 !"
b1001011100000000000000010111100 Q
b1001011100000000000000010111100 F"
b1001011100000000000000010111100 O
b1001011100000000000000010111100 q
b10111100000000000000000010111100 S
b10111100000000000000000010111100 U
b11110111100000000000000000000000 R
b11110111100000000000000000000000 T
b1001011100000000000000010111100 L
b1001011100000000000000010111100 W
b1001011100000000000000010111100 a
b1001011100000000000000010111100 ;"
b10111100000000000000000010111100 /
b10111100000000000000000010111100 c
b10111100000000000000000010111100 I"
b11110111100000000000000000000000 0
b11110111100000000000000000000000 H"
b100 M
b100 V
b100 \
b1000 +
b1000 7"
b1000 E"
b1100 ,
b1100 6"
b1100 D"
b100 =
b100 [
b100 _
b100 d
b100 k
b100 +"
b100 1"
b1111 1
b1111 5"
b1111 G"
b100001100100011110110011 P
b100001100100011110110011 0"
b100001100100011110110011 ;
b100001100100011110110011 9"
b111100 7
b111100 ?"
b111100 B"
b111100 4
b111100 A"
b111000 5
b111000 ]
b111000 8"
b111000 >"
b111000 @"
b111000 C"
b111000 K"
1!
#150000
0!
#155000
b0 !"
b1111011110000000000000000000000 Q
b1111011110000000000000000000000 F"
b1111011110000000000000000000000 O
b1111011110000000000000000000000 q
b1 S
b1 U
0I
b1111011110000000000000000000000 L
b1111011110000000000000000000000 W
b1111011110000000000000000000000 a
b1111011110000000000000000000000 ;"
b1 /
b1 c
b1 I"
b1000 M
b1000 V
b1000 \
b11 +
b11 7"
b11 E"
b101 =
b101 [
b101 _
b101 d
b101 k
b101 +"
b101 1"
b10000 1
b10000 5"
b10000 G"
b1101100101100000110011 P
b1101100101100000110011 0"
b1101100101100000110011 ;
b1101100101100000110011 9"
b1000000 7
b1000000 ?"
b1000000 B"
b1000000 4
b1000000 A"
b111100 5
b111100 ]
b111100 8"
b111100 >"
b111100 @"
b111100 C"
b111100 K"
1!
#160000
0!
#165000
b11111011110000000000000000000000 Q
b11111011110000000000000000000000 F"
b11111011110000000000000000000000 O
b11111011110000000000000000000000 q
b11111011110000000000000000000000 L
b11111011110000000000000000000000 W
b11111011110000000000000000000000 a
b11111011110000000000000000000000 ;"
b1001 M
b1001 V
b1001 \
1X
b100000 <
b100000 2"
b10001 1
b10001 5"
b10001 G"
b1000000001101100101100010110011 P
b1000000001101100101100010110011 0"
b1000000001101100101100010110011 ;
b1000000001101100101100010110011 9"
b1000100 7
b1000100 ?"
b1000100 B"
b1000100 4
b1000100 A"
b1000000 5
b1000000 ]
b1000000 8"
b1000000 >"
b1000000 @"
b1000000 C"
b1000000 K"
1!
#170000
0!
#175000
b1011000100 !"
b1 )"
b11111011111111111111101100010001 Q
b11111011111111111111101100010001 F"
b11111011111111111111101100010001 O
b11111011111111111111101100010001 q
b11111011110000000000000000000000 S
b11111011110000000000000000000000 U
b1011101111111111101100010001 R
b1011101111111111101100010001 T
b11111011111111111111101100010001 L
b11111011111111111111101100010001 W
b11111011111111111111101100010001 a
b11111011111111111111101100010001 ;"
0X
b11111011110000000000000000000000 /
b11111011110000000000000000000000 c
b11111011110000000000000000000000 I"
b1011101111111111101100010001 0
b1011101111111111101100010001 H"
b11 M
b11 V
b11 \
b0 <
b0 2"
b111 +
b111 7"
b111 E"
b1011 ,
b1011 6"
b1011 D"
b110 =
b110 [
b110 _
b110 d
b110 k
b110 +"
b110 1"
b10010 1
b10010 5"
b10010 G"
b11101011110100100110011 P
b11101011110100100110011 0"
b11101011110100100110011 ;
b11101011110100100110011 9"
b1001000 7
b1001000 ?"
b1001000 B"
b1001000 4
b1001000 A"
b1000100 5
b1000100 ]
b1000100 8"
b1000100 >"
b1000100 @"
b1000100 C"
b1000100 K"
1!
#180000
0!
#185000
b0 )"
b0 !"
b1011100000000000000000000000 Q
b1011100000000000000000000000 F"
b1011100000000000000000000000 O
b1011100000000000000000000000 q
b1011101111111111101100010001 S
b1011101111111111101100010001 U
b11111011110000000000000000000000 R
b11111011110000000000000000000000 T
b1011100000000000000000000000 L
b1011100000000000000000000000 W
b1011100000000000000000000000 a
b1011100000000000000000000000 ;"
b1011101111111111101100010001 /
b1011101111111111101100010001 c
b1011101111111111101100010001 I"
b11111011110000000000000000000000 0
b11111011110000000000000000000000 H"
b10 M
b10 V
b10 \
b1011 +
b1011 7"
b1011 E"
b111 ,
b111 6"
b111 D"
b111 =
b111 [
b111 _
b111 d
b111 k
b111 +"
b111 1"
b10011 1
b10011 5"
b10011 G"
b101100111111100110110011 P
b101100111111100110110011 0"
b101100111111100110110011 ;
b101100111111100110110011 9"
b1001100 7
b1001100 ?"
b1001100 B"
b1001100 4
b1001100 A"
bx @
bx b
b1001000 5
b1001000 ]
b1001000 8"
b1001000 >"
b1001000 @"
b1001000 C"
b1001000 K"
bx %"
1!
#190000
0!
#195000
b10110000 !"
b1011000000 O
b1011000000 q
b1010111100 R
b1010111100 T
b1011000000 L
b1011000000 W
b1011000000 a
b1011000000 ;"
b100 ("
b1010111100 0
b1010111100 H"
b0 Q
b0 F"
b100 N
b100 p
b100 S
b100 U
b1111 %
b1111 h
b1111 #"
b1011101111111111101100010001 ?
b1011101111111111101100010001 e
b1011101111111111101100010001 ""
b0 M
b0 V
b0 \
18
b0 -
b0 o
0.
b10 J
b10 m
b100 :
b100 ^
b100 /"
b0 1
b0 5"
b0 G"
b100 2
b100 -"
b100 4"
b1 ,
b1 6"
b1 D"
b10 =
b10 [
b10 _
b10 d
b10 k
b10 +"
b10 1"
b100011 6
b100011 Z
b100011 j
b100011 *"
b100011 ."
b100011 3"
b101100001010001000100011 P
b101100001010001000100011 0"
b101100001010001000100011 ;
b101100001010001000100011 9"
b1010000 7
b1010000 ?"
b1010000 B"
b1010000 4
b1010000 A"
b0 @
b0 b
b1001100 5
b1001100 ]
b1001100 8"
b1001100 >"
b1001100 @"
b1001100 C"
b1001100 K"
b0 %"
1!
#200000
0!
#205000
1f
b11 )"
b1011000011 O
b1011000011 q
b1011000011 L
b1011000011 W
b1011000011 a
b1011000011 ;"
b111 ("
b111 N
b111 p
b111 S
b111 U
b111 :
b111 ^
b111 /"
b1110101000 /
b1110101000 c
b1110101000 I"
b0 %
b0 h
b0 #"
b11101010000000001110101000 ?
b11101010000000001110101000 e
b11101010000000001110101000 ""
b111 2
b111 -"
b111 4"
b1010 +
b1010 7"
b1010 E"
b1 =
b1 [
b1 _
b1 d
b1 k
b1 +"
b1 1"
b101000001001001110100011 P
b101000001001001110100011 0"
b101000001001001110100011 ;
b101000001001001110100011 9"
b1010100 7
b1010100 ?"
b1010100 B"
b1010100 4
b1010100 A"
bx @
bx b
b1010000 5
b1010000 ]
b1010000 8"
b1010000 >"
b1010000 @"
b1010000 C"
b1010000 K"
bx %"
b100 &"
1!
#210000
0!
#215000
b0 )"
b1011000000 O
b1011000000 q
b1011000000 L
b1011000000 W
b1011000000 a
b1011000000 ;"
b100 ("
b100 N
b100 p
b100 S
b100 U
b100 :
b100 ^
b100 /"
b1001011100000000000000010111100 /
b1001011100000000000000010111100 c
b1001011100000000000000010111100 I"
0f
b1 %
b1 h
b1 #"
b10111100101111001011110010111100 ?
b10111100101111001011110010111100 e
b10111100101111001011110010111100 ""
b100 2
b100 -"
b100 4"
b1111 +
b1111 7"
b1111 E"
b0 =
b0 [
b0 _
b0 d
b0 k
b0 +"
b0 1"
b111100001000001000100011 P
b111100001000001000100011 0"
b111100001000001000100011 ;
b111100001000001000100011 9"
b1011000 7
b1011000 ?"
b1011000 B"
b1011000 4
b1011000 A"
b1010100 5
b1010100 ]
b1010100 8"
b1010100 >"
b1010100 @"
b1010100 C"
b1010100 K"
bx00001011101111111111101100010001xxxxxxxxxxxxxxxxxxxxxxxxxxxxxxxxxxxxxxxxxxxxxxxxxxxxxxxxxxxxxxxxxxxxxxxxxxxxxxxxxxxxxxxxxxxxxxxxxxxxxxxxxxxxxxxxxxxxxxxxxxxxxxxx %"
b100 &"
1!
#220000
0!
#225000
b1 )"
b1011000001 O
b1011000001 q
b1011000001 L
b1011000001 W
b1011000001 a
b1011000001 ;"
b0 /
b0 c
b0 I"
b101 ("
bx Q
bx F"
b101 N
b101 p
b101 S
b101 U
bx E
bx g
b0 %
b0 h
b0 #"
b0 ?
b0 e
b0 ""
08
19
b1 -
b1 o
1.
b101 :
b101 ^
b101 /"
b0 +
b0 7"
b0 E"
b101 2
b101 -"
b101 4"
b10 =
b10 [
b10 _
b10 d
b10 k
b10 +"
b10 1"
b10100 1
b10100 5"
b10100 G"
b11 6
b11 Z
b11 j
b11 *"
b11 ."
b11 3"
b10100001010101000000011 P
b10100001010101000000011 0"
b10100001010101000000011 ;
b10100001010101000000011 9"
b1011100 7
b1011100 ?"
b1011100 B"
b1011100 4
b1011100 A"
b1011000 5
b1011000 ]
b1011000 8"
b1011000 >"
b1011000 @"
b1011000 C"
b1011000 K"
b100 &"
1!
#230000
0!
