RV32I/testbenches/results/waveforms/RV32I37F_tb_result.vcd
$date
	Mon Mar  3 05:12:45 2025
$end
$version
	Icarus Verilog
$end
$timescale
	1ps
$end
$scope module RV32I37F_tb $end
$scope module rv32i37f $end
$var wire 1 ! clk $end
$var wire 1 " reset $end
$var wire 4 # write_mask [3:0] $end
$var wire 5 $ rs2 [4:0] $end
$var wire 5 % rs1 [4:0] $end
$var wire 3 & register_file_write_data_select [2:0] $end
$var wire 1 ' register_file_write $end
$var wire 1 ( read_done $end
$var wire 32 ) read_data2 [31:0] $end
$var wire 32 * read_data1 [31:0] $end
$var wire 5 + rd [4:0] $end
$var wire 20 , raw_imm [19:0] $end
$var wire 1 - pc_stall $end
$var wire 32 . pc_plus_4_signal [31:0] $end
$var wire 32 / pc [31:0] $end
$var wire 7 0 opcode [6:0] $end
$var wire 32 1 next_pc [31:0] $end
$var wire 1 2 memory_write $end
$var wire 1 3 memory_read $end
$var wire 1 4 jump $end
$var wire 32 5 instruction [31:0] $end
$var wire 32 6 imm [31:0] $end
$var wire 7 7 funct7 [6:0] $end
$var wire 3 8 funct3 [2:0] $end
$var wire 32 9 data_memory_write_data [31:0] $end
$var wire 32 : data_memory_read_data [31:0] $end
$var wire 32 ; byte_enable_logic_register_file_write_data [31:0] $end
$var wire 1 < branch_taken $end
$var wire 1 = branch $end
$var wire 1 > alu_zero $end
$var wire 3 ? alu_src_B_select [2:0] $end
$var wire 2 @ alu_src_A_select [1:0] $end
$var wire 32 A alu_result [31:0] $end
$var wire 4 B alu_op [3:0] $end
$var reg 32 C register_file_write_data [31:0] $end
$var reg 32 D src_A [31:0] $end
$var reg 32 E src_B [31:0] $end
$scope module alu $end
$var wire 32 F src_A [31:0] $end
$var wire 32 G src_B [31:0] $end
$var wire 4 H alu_op [3:0] $end
$var reg 32 I alu_result [31:0] $end
$var reg 1 > alu_zero $end
$upscope $end
$scope module alu_controller $end
$var wire 1 J funct7_5 $end
$var wire 1 K imm_10 $end
$var wire 7 L opcode [6:0] $end
$var wire 3 M funct3 [2:0] $end
$var reg 4 N alu_op [3:0] $end
$upscope $end
$scope module branch_logic $end
$var wire 1 > alu_zero $end
$var wire 3 O funct3 [2:0] $end
$var wire 1 = branch $end
$var reg 1 < branch_taken $end
$upscope $end
$scope module byte_enable_logic $end
$var wire 32 P address [31:0] $end
$var wire 32 Q register_file_read_data [31:0] $end
$var wire 1 2 memory_write $end
$var wire 1 3 memory_read $end
$var wire 3 R funct3 [2:0] $end
$var wire 32 S data_memory_read_data [31:0] $end
$var reg 32 T data_memory_write_data [31:0] $end
$var reg 1 U misaligned $end
$var reg 32 V register_file_write_data [31:0] $end
$var reg 4 W write_mask [3:0] $end
$upscope $end
$scope module control_unit $end
$var wire 1 X write_done $end
$var wire 1 ( read_done $end
$var wire 7 Y opcode [6:0] $end
$var wire 3 Z funct3 [2:0] $end
$var reg 2 [ alu_src_A_select [1:0] $end
$var reg 3 \ alu_src_B_select [2:0] $end
$var reg 1 = branch $end
$var reg 3 ] csr_op [2:0] $end
$var reg 1 4 jump $end
$var reg 1 3 memory_read $end
$var reg 1 2 memory_write $end
$var reg 1 - pc_stall $end
$var reg 1 ' register_file_write $end
$var reg 3 ^ register_file_write_data_select [2:0] $end
$upscope $end
$scope module data_memory $end
$var wire 10 _ address [9:0] $end
$var wire 1 ! clk $end
$var wire 1 3 read_enable $end
$var wire 32 ` write_data [31:0] $end
$var wire 1 2 write_enable $end
$var wire 4 a write_mask [3:0] $end
$var reg 32 b extended_mask [31:0] $end
$var reg 32 c read_data [31:0] $end
$var reg 1 ( read_done $end
$upscope $end
$scope module immediate_generator $end
$var wire 20 d raw_imm [19:0] $end
$var wire 7 e opcode [6:0] $end
$var reg 32 f imm [31:0] $end
$upscope $end
$scope module instruction_decoder $end
$var wire 32 g instr [31:0] $end
$var reg 3 h funct3 [2:0] $end
$var reg 7 i funct7 [6:0] $end
$var reg 7 j opcode [6:0] $end
$var reg 20 k raw_imm [19:0] $end
$var reg 5 l rd [4:0] $end
$var reg 5 m rs1 [4:0] $end
$var reg 5 n rs2 [4:0] $end
$upscope $end
$scope module instruction_memory $end
$var wire 32 o pc [31:0] $end
$var reg 32 p instruction [31:0] $end
$upscope $end
$scope module pc_controller $end
$var wire 1 < branch_taken $end
$var wire 32 q imm [31:0] $end
$var wire 1 4 jump $end
$var wire 32 r jump_target [31:0] $end
$var wire 1 - pc_stall $end
$var wire 32 s trap_target [31:0] $end
$var wire 1 t trapped $end
$var wire 1 u write_done $end
$var wire 32 v pc [31:0] $end
$var reg 32 w next_pc [31:0] $end
$upscope $end
$scope module pc_plus_4 $end
$var wire 32 x pc [31:0] $end
$var reg 32 y pc_plus_4 [31:0] $end
$upscope $end
$scope module program_counter $end
$var wire 1 ! clk $end
$var wire 32 z next_pc [31:0] $end
$var wire 1 " reset $end
$var reg 32 { pc [31:0] $end
$upscope $end
$scope module register_file $end
$var wire 1 ! clk $end
$var wire 5 | read_reg1 [4:0] $end
$var wire 5 } read_reg2 [4:0] $end
$var wire 32 ~ write_data [31:0] $end
$var wire 1 ' write_enable $end
$var wire 5 !" write_reg [4:0] $end
$var reg 32 "" read_data1 [31:0] $end
$var reg 32 #" read_data2 [31:0] $end
$upscope $end
$upscope $end
$upscope $end
$enddefinitions $end
$comment Show the parameter values. $end
$dumpall
$end
#0
$dumpvars
b0 #"
b0 ""
b1 !"
b1010111100 ~
b0 }
b0 |
b0 {
b100 z
b100 y
b0 x
b100 w
b0 v
1u
0t
b0 s
b1010111100 r
b1010111100 q
b101011110000000000000010010011 p
b0 o
b0 n
b0 m
b1 l
b1010111100 k
b10011 j
b0 i
b0 h
b101011110000000000000010010011 g
b1010111100 f
b10011 e
b1010111100 d
bx c
bx b
b0 a
b0 `
b10101111 _
b10 ^
b0 ]
b10 \
b1 [
b0 Z
b10011 Y
1X
b0 W
b0 V
0U
b0 T
bx S
b0 R
b0 Q
b1010111100 P
b0 O
b0 N
b0 M
b10011 L
0K
0J
b1010111100 I
b0 H
b1010111100 G
b0 F
b1010111100 E
b0 D
b1010111100 C
b0 B
b1010111100 A
b1 @
b10 ?
0>
0=
0<
b0 ;
bx :
b0 9
b0 8
b0 7
b1010111100 6
b101011110000000000000010010011 5
04
03
02
b100 1
b10011 0
b0 /
b100 .
0-
b1010111100 ,
b1 +
b0 *
b0 )
x(
1'
b10 &
b0 %
b0 $
b0 #
1"
0!
$end
#5000
0(
b0 :
b0 S
b0 c
b0 b
1!
#10000
0!
0"
#15000
b0 _
b10111100000000000000000000000000 C
b10111100000000000000000000000000 ~
b11000 E
b11000 G
b1010111100 D
b1010111100 F
0>
b10111100000000000000000000000000 A
b10111100000000000000000000000000 I
b10111100000000000000000000000000 P
b10111100000000000000000000000000 r
b11000 6
b11000 f
b11000 q
b1010111100 *
b1010111100 ""
b111 B
b111 H
b111 N
b11000 ,
b11000 d
b11000 k
b1 %
b1 m
b1 |
b1 8
b1 M
b1 O
b1 R
b1 Z
b1 h
b10 +
b10 l
b10 !"
b1100000001001000100010011 5
b1100000001001000100010011 g
b1100000001001000100010011 p
b1000 1
b1000 w
b1000 z
b1000 .
b1000 y
b100 /
b100 o
b100 v
b100 x
b100 {
1!
#20000
0!
#25000
b1 C
b1 ~
b0 E
b0 G
b10111100000000000000000000000000 D
b10111100000000000000000000000000 F
0>
b1 A
b1 I
b1 P
b1 r
b0 6
b0 f
b0 q
b10111100000000000000000000000000 *
b10111100000000000000000000000000 ""
b101 B
b101 H
b101 N
b0 ,
b0 d
b0 k
b10 %
b10 m
b10 |
b10 8
b10 M
b10 O
b10 R
b10 Z
b10 h
b11 +
b11 l
b11 !"
b10010000110010011 5
b10010000110010011 g
b10010000110010011 p
b1100 1
b1100 w
b1100 z
b1100 .
b1100 y
b1000 /
b1000 o
b1000 v
b1000 x
b1000 {
1!
#30000
0!
#35000
b0 C
b0 ~
1>
b0 A
b0 I
b0 P
b0 r
b110 B
b110 H
b110 N
b11 8
b11 M
b11 O
b11 R
b11 Z
b11 h
b100 +
b100 l
b100 !"
b10011001000010011 5
b10011001000010011 g
b10011001000010011 p
b10000 1
b10000 w
b10000 z
b10000 .
b10000 y
b1100 /
b1100 o
b1100 v
b1100 x
b1100 {
1!
#40000
0!
#45000
b100111011 _
1K
b10011101111 C
b10011101111 ~
b11001010011 E
b11001010011 G
b1010111100 D
b1010111100 F
0>
b10011101111 A
b10011101111 I
b10011101111 P
b10011101111 r
b11001010011 6
b11001010011 f
b11001010011 q
b1010111100 *
b1010111100 ""
b100 B
b100 H
b100 N
b11001010011 ,
b11001010011 d
b11001010011 k
b1 %
b1 m
b1 |
b100 8
b100 M
b100 O
b100 R
b100 Z
b100 h
b101 +
b101 l
b101 !"
b1100101001100001100001010010011 5
b1100101001100001100001010010011 g
b1100101001100001100001010010011 p
b10100 1
b10100 w
b10100 z
b10100 .
b10100 y
b10000 /
b10000 o
b10000 v
b10000 x
b10000 {
1!
#50000
0!
#55000
b0 _
b1011110000000000000000000000 C
b1011110000000000000000000000 ~
0K
b1011110000000000000000000000 A
b1011110000000000000000000000 I
b1011110000000000000000000000 P
b1011110000000000000000000000 r
b100 E
b100 G
b10111100000000000000000000000000 D
b10111100000000000000000000000000 F
b100 6
b100 f
b100 q
b10111100000000000000000000000000 *
b10111100000000000000000000000000 ""
b1000 B
b1000 H
b1000 N
b100 ?
b100 \
b100 ,
b100 d
b100 k
b10 %
b10 m
b10 |
b101 8
b101 M
b101 O
b101 R
b101 Z
b101 h
b110 +
b110 l
b110 !"
b10000010101001100010011 5
b10000010101001100010011 g
b10000010101001100010011 p
b11000 1
b11000 w
b11000 z
b11000 .
b11000 y
b10100 /
b10100 o
b10100 v
b10100 x
b10100 {
1!
#60000
0!
#65000
b11111011110000000000000000000000 C
b11111011110000000000000000000000 ~
b11111011110000000000000000000000 A
b11111011110000000000000000000000 I
b11111011110000000000000000000000 P
b11111011110000000000000000000000 r
b1001 B
b1001 H
b1001 N
1K
b10000000100 6
b10000000100 f
b10000000100 q
b10000000100 ,
b10000000100 d
b10000000100 k
b111 +
b111 l
b111 !"
b1000000010000010101001110010011 5
b1000000010000010101001110010011 g
b1000000010000010101001110010011 p
b11100 1
b11100 w
b11100 z
b11100 .
b11100 y
b11000 /
b11000 o
b11000 v
b11000 x
b11000 {
1!
#70000
0!
#75000
b101111 _
b10111100000000000000000010111100 C
b10111100000000000000000010111100 ~
0K
b10111100000000000000000010111100 A
b10111100000000000000000010111100 I
b10111100000000000000000010111100 P
b10111100000000000000000010111100 r
b10111100 E
b10111100 G
b10111100 6
b10111100 f
b10111100 q
b11 B
b11 H
b11 N
b10 ?
b10 \
b10111100 ,
b10111100 d
b10111100 k
b110 8
b110 M
b110 O
b110 R
b110 Z
b110 h
b1000 +
b1000 l
b1000 !"
b1011110000010110010000010011 5
b1011110000010110010000010011 g
b1011110000010110010000010011 p
b100000 1
b100000 w
b100000 z
b100000 .
b100000 y
b11100 /
b11100 o
b11100 v
b11100 x
b11100 {
1!
#80000
0!
#85000
b111011 _
b11101100 C
b11101100 ~
b11101100 E
b11101100 G
b10011101111 D
b10011101111 F
0>
b11101100 A
b11101100 I
b11101100 P
b11101100 r
b11101100 6
b11101100 f
b11101100 q
b10011101111 *
b10011101111 ""
b10 B
b10 H
b10 N
b11101100 ,
b11101100 d
b11101100 k
b101 %
b101 m
b101 |
b111 8
b111 M
b111 O
b111 R
b111 Z
b111 h
b1001 +
b1001 l
b1001 !"
b1110110000101111010010010011 5
b1110110000101111010010010011 g
b1110110000101111010010010011 p
b100100 1
b100100 w
b100100 z
b100100 .
b100100 y
b100000 /
b100000 o
b100000 v
b100000 x
b100000 {
1!
#90000
0!
#95000
b11101010 _
b1110101000 C
b1110101000 ~
b1110101000 A
b1110101000 I
b1110101000 P
b1110101000 r
b1010111100 D
b1010111100 F
b11101100 )
b11101100 Q
b11101100 #"
b1010111100 *
b1010111100 ""
b0 B
b0 H
b0 N
b1 ?
b1 \
b0 6
b0 f
b0 q
b0 ,
b0 d
b0 k
b1001 $
b1001 n
b1001 }
b1 %
b1 m
b1 |
b0 8
b0 M
b0 O
b0 R
b0 Z
b0 h
b1010 +
b1010 l
b1010 !"
b110011 0
b110011 L
b110011 Y
b110011 e
b110011 j
b100100001000010100110011 5
b100100001000010100110011 g
b100100001000010100110011 p
b101000 1
b101000 w
b101000 z
b101000 .
b101000 y
b100100 /
b100100 o
b100100 v
b100100 x
b100100 {
1!
#100000
0!
#105000
b1011000100 _
b1011101111111111101100010001 C
b1011101111111111101100010001 ~
b1011101111111111101100010001 A
b1011101111111111101100010001 I
b1011101111111111101100010001 P
b1011101111111111101100010001 r
b1 B
b1 H
b1 N
b10011101111 E
b10011101111 G
b1011110000000000000000000000 D
b1011110000000000000000000000 F
1J
b10011101111 )
b10011101111 Q
b10011101111 #"
b1011110000000000000000000000 *
b1011110000000000000000000000 ""
b100000 7
b100000 i
b101 $
b101 n
b101 }
b110 %
b110 m
b110 |
b1011 +
b1011 l
b1011 !"
b1000000010100110000010110110011 5
b1000000010100110000010110110011 g
b1000000010100110000010110110011 p
b101100 1
b101100 w
b101100 z
b101100 .
b101100 y
b101000 /
b101000 o
b101000 v
b101000 x
b101000 {
1!
#110000
0!
#115000
b0 _
b11110111100000000000000000000000 C
b11110111100000000000000000000000 ~
b1 E
b1 G
b11111011110000000000000000000000 D
b11111011110000000000000000000000 F
0>
b11110111100000000000000000000000 A
b11110111100000000000000000000000 I
b11110111100000000000000000000000 P
b11110111100000000000000000000000 r
0J
b1 )
b1 Q
b1 #"
b11111011110000000000000000000000 *
b11111011110000000000000000000000 ""
b111 B
b111 H
b111 N
b0 7
b0 i
b11 $
b11 n
b11 }
b111 %
b111 m
b111 |
b1 8
b1 M
b1 O
b1 R
b1 Z
b1 h
b1100 +
b1100 l
b1100 !"
b1100111001011000110011 5
b1100111001011000110011 g
b1100111001011000110011 p
b110000 1
b110000 w
b110000 z
b110000 .
b110000 y
b101100 /
b101100 o
b101100 v
b101100 x
b101100 {
1!
#120000
0!
#125000
1>
b0 C
b0 ~
b10111100000000000000000000000000 E
b10111100000000000000000000000000 G
b1010111100 D
b1010111100 F
b0 A
b0 I
b0 P
b0 r
b10111100000000000000000000000000 )
b10111100000000000000000000000000 Q
b10111100000000000000000000000000 #"
b1010111100 *
b1010111100 ""
b101 B
b101 H
b101 N
b10 $
b10 n
b10 }
b1 %
b1 m
b1 |
b10 8
b10 M
b10 O
b10 R
b10 Z
b10 h
b1101 +
b1101 l
b1101 !"
b1000001010011010110011 5
b1000001010011010110011 g
b1000001010011010110011 p
b110100 1
b110100 w
b110100 z
b110100 .
b110100 y
b110000 /
b110000 o
b110000 v
b110000 x
b110000 {
1!
#130000
0!
#135000
b1 C
b1 ~
0>
b1 A
b1 I
b1 P
b1 r
b110 B
b110 H
b110 N
b11 8
b11 M
b11 O
b11 R
b11 Z
b11 h
b1110 +
b1110 l
b1110 !"
b1000001011011100110011 5
b1000001011011100110011 g
b1000001011011100110011 p
b111000 1
b111000 w
b111000 z
b111000 .
b111000 y
b110100 /
b110100 o
b110100 v
b110100 x
b110100 {
1!
#140000
0!
#145000
b101111 _
b1001011100000000000000010111100 C
b1001011100000000000000010111100 ~
b10111100000000000000000010111100 E
b10111100000000000000000010111100 G
b11110111100000000000000000000000 D
b11110111100000000000000000000000 F
b1001011100000000000000010111100 A
b1001011100000000000000010111100 I
b1001011100000000000000010111100 P
b1001011100000000000000010111100 r
b10111100000000000000000010111100 )
b10111100000000000000000010111100 Q
b10111100000000000000000010111100 #"
b11110111100000000000000000000000 *
b11110111100000000000000000000000 ""
b100 B
b100 H
b100 N
b1000 $
b1000 n
b1000 }
b1100 %
b1100 m
b1100 |
b100 8
b100 M
b100 O
b100 R
b100 Z
b100 h
b1111 +
b1111 l
b1111 !"
b100001100100011110110011 5
b100001100100011110110011 g
b100001100100011110110011 p
b111100 1
b111100 w
b111100 z
b111100 .
b111100 y
b111000 /
b111000 o
b111000 v
b111000 x
b111000 {
1!
#150000
0!
#155000
b0 _
b1111011110000000000000000000000 C
b1111011110000000000000000000000 ~
b1 E
b1 G
0>
b1111011110000000000000000000000 A
b1111011110000000000000000000000 I
b1111011110000000000000000000000 P
b1111011110000000000000000000000 r
b1 )
b1 Q
b1 #"
b1000 B
b1000 H
b1000 N
b11 $
b11 n
b11 }
b101 8
b101 M
b101 O
b101 R
b101 Z
b101 h
b10000 +
b10000 l
b10000 !"
b1101100101100000110011 5
b1101100101100000110011 g
b1101100101100000110011 p
b1000000 1
b1000000 w
b1000000 z
b1000000 .
b1000000 y
b111100 /
b111100 o
b111100 v
b111100 x
b111100 {
1!
#160000
0!
#165000
b11111011110000000000000000000000 C
b11111011110000000000000000000000 ~
b11111011110000000000000000000000 A
b11111011110000000000000000000000 I
b11111011110000000000000000000000 P
b11111011110000000000000000000000 r
b1001 B
b1001 H
b1001 N
1J
b100000 7
b100000 i
b10001 +
b10001 l
b10001 !"
b1000000001101100101100010110011 5
b1000000001101100101100010110011 g
b1000000001101100101100010110011 p
b1000100 1
b1000100 w
b1000100 z
b1000100 .
b1000100 y
b1000000 /
b1000000 o
b1000000 v
b1000000 x
b1000000 {
1!
#170000
0!
#175000
b1011000100 _
b11111011111111111111101100010001 C
b11111011111111111111101100010001 ~
b11111011110000000000000000000000 E
b11111011110000000000000000000000 G
b1011101111111111101100010001 D
b1011101111111111101100010001 F
b11111011111111111111101100010001 A
b11111011111111111111101100010001 I
b11111011111111111111101100010001 P
b11111011111111111111101100010001 r
0J
b11111011110000000000000000000000 )
b11111011110000000000000000000000 Q
b11111011110000000000000000000000 #"
b1011101111111111101100010001 *
b1011101111111111101100010001 ""
b11 B
b11 H
b11 N
b0 7
b0 i
b111 $
b111 n
b111 }
b1011 %
b1011 m
b1011 |
b110 8
b110 M
b110 O
b110 R
b110 Z
b110 h
b10010 +
b10010 l
b10010 !"
b11101011110100100110011 5
b11101011110100100110011 g
b11101011110100100110011 p
b1001000 1
b1001000 w
b1001000 z
b1001000 .
b1001000 y
b1000100 /
b1000100 o
b1000100 v
b1000100 x
b1000100 {
1!
#180000
0!
#185000
b0 _
b1011100000000000000000000000 C
b1011100000000000000000000000 ~
b1011101111111111101100010001 E
b1011101111111111101100010001 G
b11111011110000000000000000000000 D
b11111011110000000000000000000000 F
b1011100000000000000000000000 A
b1011100000000000000000000000 I
b1011100000000000000000000000 P
b1011100000000000000000000000 r
b1011101111111111101100010001 )
b1011101111111111101100010001 Q
b1011101111111111101100010001 #"
b11111011110000000000000000000000 *
b11111011110000000000000000000000 ""
b10 B
b10 H
b10 N
b1011 $
b1011 n
b1011 }
b111 %
b111 m
b111 |
b111 8
b111 M
b111 O
b111 R
b111 Z
b111 h
b10011 +
b10011 l
b10011 !"
b101100111111100110110011 5
b101100111111100110110011 g
b101100111111100110110011 p
b1001100 1
b1001100 w
b1001100 z
b1001100 .
b1001100 y
b1001000 /
b1001000 o
b1001000 v
b1001000 x
b1001000 {
1!
#190000
0!
#195000
b10110000 _
b1011000000 A
b1011000000 I
b1011000000 P
b1011000000 r
b0 C
b0 ~
b100 E
b100 G
b1010111100 D
b1010111100 F
b1010111100 *
b1010111100 ""
b1111 #
b1111 W
b1111 a
b1011101111111111101100010001 9
b1011101111111111101100010001 T
b1011101111111111101100010001 `
b0 B
b0 H
b0 N
12
b0 &
b0 ^
0'
b10 ?
b10 \
b100 6
b100 f
b100 q
b0 +
b0 l
b0 !"
b100 ,
b100 d
b100 k
b1 %
b1 m
b1 |
b10 8
b10 M
b10 O
b10 R
b10 Z
b10 h
b100011 0
b100011 L
b100011 Y
b100011 e
b100011 j
b101100001010001000100011 5
b101100001010001000100011 g
b101100001010001000100011 p
b1010000 1
b1010000 w
b1010000 z
b1010000 .
b1010000 y
b1001100 /
b1001100 o
b1001100 v
b1001100 x
b1001100 {
1!
#200000
0!
#205000
b1011000010 A
b1011000010 I
b1011000010 P
b1011000010 r
b110 E
b110 G
b110 6
b110 f
b110 q
b1110101000 )
b1110101000 Q
b1110101000 #"
b1100 #
b1100 W
b1100 a
b11101010000000001110101000 9
b11101010000000001110101000 T
b11101010000000001110101000 `
b110 ,
b110 d
b110 k
b1010 $
b1010 n
b1010 }
b1 8
b1 M
b1 O
b1 R
b1 Z
b1 h
b101000001001001100100011 5
b101000001001001100100011 g
b101000001001001100100011 p
b1010100 1
b1010100 w
b1010100 z
b1010100 .
b1010100 y
b1010000 /
b1010000 o
b1010000 v
b1010000 x
b1010000 {
b11111111111111111111111111111111 b
1!
#210000
0!
#215000
b1011000000 A
b1011000000 I
b1011000000 P
b1011000000 r
b100 E
b100 G
b100 6
b100 f
b100 q
b1001011100000000000000010111100 )
b1001011100000000000000010111100 Q
b1001011100000000000000010111100 #"
b1 #
b1 W
b1 a
b10111100101111001011110010111100 9
b10111100101111001011110010111100 T
b10111100101111001011110010111100 `
b100 ,
b100 d
b100 k
b1111 $
b1111 n
b1111 }
b0 8
b0 M
b0 O
b0 R
b0 Z
b0 h
b111100001000001000100011 5
b111100001000001000100011 g
b111100001000001000100011 p
b1011000 1
b1011000 w
b1011000 z
b1011000 .
b1011000 y
b1010100 /
b1010100 o
b1010100 v
b1010100 x
b1010100 {
b11111111111111110000000000000000 b
1!
#220000
0!
#225000
b0 )
b0 Q
b0 #"
b0 #
b0 W
b0 a
b0 9
b0 T
b0 `
1-
02
13
b1 &
b1 ^
1'
b0 $
b0 n
b0 }
b10 8
b10 M
b10 O
b10 R
b10 Z
b10 h
b10100 +
b10100 l
b10100 !"
b11 0
b11 L
b11 Y
b11 e
b11 j
b10000001010101000000011 5
b10000001010101000000011 g
b10000001010101000000011 p
b1011000 1
b1011000 w
b1011000 z
b1011100 .
b1011100 y
b1011000 /
b1011000 o
b1011000 v
b1011000 x
b1011000 {
b11111111 b
1!
#230000
0!
#235000
b1011100 1
b1011100 w
b1011100 z
b11101010001111101110111100 C
b11101010001111101110111100 ~
0-
b11101010001111101110111100 ;
b11101010001111101110111100 V
1(
b11101010001111101110111100 :
b11101010001111101110111100 S
b11101010001111101110111100 c
b0 b
1!
#240000
0!
#245000
b11111111111111111111101110111100 C
b11111111111111111111101110111100 ~
b11111111111111111111101110111100 ;
b11111111111111111111101110111100 V
b1 8
b1 M
b1 O
b1 R
b1 Z
b1 h
b10101 +
b10101 l
b10101 !"
b10000001001101010000011 5
b10000001001101010000011 g
b10000001001101010000011 p
b1100000 1
b1100000 w
b1100000 z
b1100000 .
b1100000 y
b1011100 /
b1011100 o
b1011100 v
b1011100 x
b1011100 {
1!
#250000
0!
#255000
b11111111111111111111111110111100 C
b11111111111111111111111110111100 ~
b11111111111111111111111110111100 ;
b11111111111111111111111110111100 V
b0 8
b0 M
b0 O
b0 R
b0 Z
b0 h
b10110 +
b10110 l
b10110 !"
b10000001000101100000011 5
b10000001000101100000011 g
b10000001000101100000011 p
b1100100 1
b1100100 w
b1100100 z
b1100100 .
b1100100 y
b1100000 /
b1100000 o
b1100000 v
b1100000 x
b1100000 {
1!
#260000
0!
#265000
b1111101110111100 C
b1111101110111100 ~
b1111101110111100 ;
b1111101110111100 V
b101 8
b101 M
b101 O
b101 R
b101 Z
b101 h
b10111 +
b10111 l
b10111 !"
b10000001101101110000011 5
b10000001101101110000011 g
b10000001101101110000011 p
b1101000 1
b1101000 w
b1101000 z
b1101000 .
b1101000 y
b1100100 /
b1100100 o
b1100100 v
b1100100 x
b1100100 {
1!
#270000
0!
#275000
b10111100 C
b10111100 ~
b10111100 ;
b10111100 V
b100 8
b100 M
b100 O
b100 R
b100 Z
b100 h
b11000 +
b11000 l
b11000 !"
b10000001100110000000011 5
b10000001100110000000011 g
b10000001100110000000011 p
b1101100 1
b1101100 w
b1101100 z
b1101100 .
b1101100 y
b1101000 /
b1101000 o
b1101000 v
b1101000 x
b1101000 {
1!
#280000
0!
#285000
b0 _
1>
b0 A
b0 I
b0 P
b0 r
b1000000000000 C
b1000000000000 ~
b0 E
b0 G
b0 D
b0 F
b0 *
b0 ""
b0 ;
b0 V
b1111 B
b1111 H
b1111 N
03
b100 &
b100 ^
b0 ?
b0 \
b0 @
b0 [
b1000000000000 6
b1000000000000 f
b1000000000000 q
b0 %
b0 m
b0 |
b0 8
b0 M
b0 O
b0 R
b0 Z
b0 h
b1 ,
b1 d
b1 k
b11001 +
b11001 l
b11001 !"
b110111 0
b110111 L
b110111 Y
b110111 e
b110111 j
b1110010110111 5
b1110010110111 g
b1110010110111 p
b1110000 1
b1110000 w
b1110000 z
b1110000 .
b1110000 y
b1101100 /
b1101100 o
b1101100 v
b1101100 x
b1101100 {
1!
#290000
0!
#295000
b11100 _
0>
b1000001110000 A
b1000001110000 I
b1000001110000 P
b1000001110000 r
b1000001110000 C
b1000001110000 ~
b1000000000000 E
b1000000000000 G
b1110000 D
b1110000 F
b0 B
b0 H
b0 N
b10 &
b10 ^
b10 ?
b10 \
b10 @
b10 [
b11010 +
b11010 l
b11010 !"
b10111 0
b10111 L
b10111 Y
b10111 e
b10111 j
b1110100010111 5
b1110100010111 g
b1110100010111 p
b1110100 1
b1110100 w
b1110100 z
b1110100 .
b1110100 y
0(
b0 :
b0 S
b0 c
b1110000 /
b1110000 o
b1110000 v
b1110000 x
b1110000 {
1!
#300000
0!
#305000
b100100 _
b1111000 C
b1111000 ~
b11100 E
b11100 G
b101 &
b101 ^
14
b11100 6
b11100 f
b11100 q
b10010000 A
b10010000 I
b10010000 P
b10010000 r
b1110 ,
b1110 d
b1110 k
b11011 +
b11011 l
b11011 !"
b1101111 0
b1101111 L
b1101111 Y
b1101111 e
b1101111 j
b1110100 D
b1110100 F
b1110000000000110111101111 5
b1110000000000110111101111 g
b1110000000000110111101111 p
b10010000 1
b10010000 w
b10010000 z
b1111000 .
b1111000 y
b1110100 /
b1110100 o
b1110100 v
b1110100 x
b1110100 {
1!
#310000
0!
#315000
b1111000 1
b1111000 w
b1111000 z
b11110 _
b0 E
b0 G
b1111000 *
b1111000 ""
b1 @
b1 [
b0 6
b0 f
b0 q
b1111000 A
b1111000 I
b1111000 P
b1111000 r
b0 ,
b0 d
b0 k
b11011 %
b11011 m
b11011 |
b11100 +
b11100 l
b11100 !"
b1100111 0
b1100111 L
b1100111 Y
b1100111 e
b1100111 j
b10010100 C
b10010100 ~
b1111000 D
b1111000 F
b11011000111001100111 5
b11011000111001100111 g
b11011000111001100111 p
b10010100 .
b10010100 y
b10010000 /
b10010000 o
b10010000 v
b10010000 x
b10010000 {
1!
#320000
0!
#325000
b10101111 _
b1000100000000000000001010111100 A
b1000100000000000000001010111100 I
b1000100000000000000001010111100 P
b1000100000000000000001010111100 r
b1111100 1
b1111100 w
b1111100 z
b10111100000000000000000000000000 E
b10111100000000000000000000000000 G
b1010111100 D
b1010111100 F
b10111100000000000000000000000000 )
b10111100000000000000000000000000 Q
b10111100000000000000000000000000 #"
b1010111100 *
b1010111100 ""
b1 B
b1 H
b1 N
b0 &
b0 ^
0'
b1 ?
b1 \
1=
04
b1000 6
b1000 f
b1000 q
b0 +
b0 l
b0 !"
b100 ,
b100 d
b100 k
b10 $
b10 n
b10 }
b1 %
b1 m
b1 |
b1100011 0
b1100011 L
b1100011 Y
b1100011 e
b1100011 j
b0 C
b0 ~
b1000001000010001100011 5
b1000001000010001100011 g
b1000001000010001100011 p
b1111100 .
b1111100 y
b1111000 /
b1111000 o
b1111000 v
b1111000 x
b1111000 {
1!
#330000
0!
#335000
b0 _
1>
b0 A
b0 I
b0 P
b0 r
b11111011110000000000000000000000 E
b11111011110000000000000000000000 G
b11111011110000000000000000000000 D
b11111011110000000000000000000000 F
b11111011110000000000000000000000 )
b11111011110000000000000000000000 Q
b11111011110000000000000000000000 #"
b11111011110000000000000000000000 *
b11111011110000000000000000000000 ""
0<
b10001 $
b10001 n
b10001 }
b111 %
b111 m
b111 |
b1 8
b1 M
b1 O
b1 R
b1 Z
b1 h
b1000100111001010001100011 5
b1000100111001010001100011 g
b1000100111001010001100011 p
b10000000 1
b10000000 w
b10000000 z
b10000000 .
b10000000 y
b1111100 /
b1111100 o
b1111100 v
b1111100 x
b1111100 {
1!
#340000
0!
#345000
b10111100000000000000000000000000 E
b10111100000000000000000000000000 G
b1010111100 D
b1010111100 F
b10111100000000000000000000000000 )
b10111100000000000000000000000000 Q
b10111100000000000000000000000000 #"
b1010111100 *
b1010111100 ""
b101 B
b101 H
b101 N
b10 $
b10 n
b10 }
b1 %
b1 m
b1 |
b100 8
b100 M
b100 O
b100 R
b100 Z
b100 h
b1000001100010001100011 5
b1000001100010001100011 g
b1000001100010001100011 p
b10000100 1
b10000100 w
b10000100 z
b10000100 .
b10000100 y
b10000000 /
b10000000 o
b10000000 v
b10000000 x
b10000000 {
1!
#350000
0!
#355000
0>
b1 A
b1 I
b1 P
b1 r
b1010111100 E
b1010111100 G
b10111100000000000000000000000000 D
b10111100000000000000000000000000 F
b1010111100 )
b1010111100 Q
b1010111100 #"
b10111100000000000000000000000000 *
b10111100000000000000000000000000 ""
0<
b1 $
b1 n
b1 }
b10 %
b10 m
b10 |
b101 8
b101 M
b101 O
b101 R
b101 Z
b101 h
b100010101010001100011 5
b100010101010001100011 g
b100010101010001100011 p
b10001000 1
b10001000 w
b10001000 z
b10001000 .
b10001000 y
b10000100 /
b10000100 o
b10000100 v
b10000100 x
b10000100 {
1!
#360000
0!
#365000
1>
b0 A
b0 I
b0 P
b0 r
b110 B
b110 H
b110 N
0<
b110 8
b110 M
b110 O
b110 R
b110 Z
b110 h
b100010110010001100011 5
b100010110010001100011 g
b100010110010001100011 p
b10001100 1
b10001100 w
b10001100 z
b10001100 .
b10001100 y
b10001000 /
b10001000 o
b10001000 v
b10001000 x
b10001000 {
1!
