RV32I/testbenches/results/waveforms/RV32I37F_tb_result.vcd
$date
	Mon Mar  3 14:25:10 2025
$end
$version
	Icarus Verilog
$end
$timescale
	1ps
$end
$scope module RV32I37F_tb $end
$scope module rv32i37f $end
$var wire 1 ! clk $end
$var wire 1 " reset $end
$var wire 4 # write_mask [3:0] $end
$var wire 5 $ rs2 [4:0] $end
$var wire 5 % rs1 [4:0] $end
$var wire 3 & register_file_write_data_select [2:0] $end
$var wire 1 ' register_file_write $end
$var wire 1 ( read_done $end
$var wire 32 ) read_data2 [31:0] $end
$var wire 32 * read_data1 [31:0] $end
$var wire 5 + rd [4:0] $end
$var wire 32 , raw_next_pc [31:0] $end
$var wire 20 - raw_imm [19:0] $end
$var wire 1 . pc_stall $end
$var wire 32 / pc_plus_4_signal [31:0] $end
$var wire 32 0 pc [31:0] $end
$var wire 7 1 opcode [6:0] $end
$var wire 32 2 next_pc [31:0] $end
$var wire 1 3 memory_write $end
$var wire 1 4 memory_read $end
$var wire 1 5 jump $end
$var wire 32 6 instruction [31:0] $end
$var wire 32 7 imm [31:0] $end
$var wire 7 8 funct7 [6:0] $end
$var wire 3 9 funct3 [2:0] $end
$var wire 32 : data_memory_write_data [31:0] $end
$var wire 32 ; data_memory_read_data [31:0] $end
$var wire 32 < byte_enable_logic_register_file_write_data [31:0] $end
$var wire 1 = branch_taken $end
$var wire 1 > branch $end
$var wire 1 ? alu_zero $end
$var wire 3 @ alu_src_B_select [2:0] $end
$var wire 2 A alu_src_A_select [1:0] $end
$var wire 32 B alu_result [31:0] $end
$var wire 4 C alu_op [3:0] $end
$var reg 32 D register_file_write_data [31:0] $end
$var reg 32 E src_A [31:0] $end
$var reg 32 F src_B [31:0] $end
$scope module alu $end
$var wire 32 G src_A [31:0] $end
$var wire 32 H src_B [31:0] $end
$var wire 4 I alu_op [3:0] $end
$var reg 32 J alu_result [31:0] $end
$var reg 1 ? alu_zero $end
$upscope $end
$scope module alu_controller $end
$var wire 1 K funct7_5 $end
$var wire 1 L imm_10 $end
$var wire 7 M opcode [6:0] $end
$var wire 3 N funct3 [2:0] $end
$var reg 4 O alu_op [3:0] $end
$upscope $end
$scope module branch_logic $end
$var wire 1 ? alu_zero $end
$var wire 3 P funct3 [2:0] $end
$var wire 1 > branch $end
$var reg 1 = branch_taken $end
$upscope $end
$scope module byte_enable_logic $end
$var wire 32 Q address [31:0] $end
$var wire 32 R register_file_read_data [31:0] $end
$var wire 1 3 memory_write $end
$var wire 1 4 memory_read $end
$var wire 3 S funct3 [2:0] $end
$var wire 32 T data_memory_read_data [31:0] $end
$var reg 32 U data_memory_write_data [31:0] $end
$var reg 1 V misaligned $end
$var reg 32 W register_file_write_data [31:0] $end
$var reg 4 X write_mask [3:0] $end
$upscope $end
$scope module control_unit $end
$var wire 1 Y write_done $end
$var wire 1 ( read_done $end
$var wire 7 Z opcode [6:0] $end
$var wire 3 [ funct3 [2:0] $end
$var reg 2 \ alu_src_A_select [1:0] $end
$var reg 3 ] alu_src_B_select [2:0] $end
$var reg 1 > branch $end
$var reg 3 ^ csr_op [2:0] $end
$var reg 1 5 jump $end
$var reg 1 4 memory_read $end
$var reg 1 3 memory_write $end
$var reg 1 . pc_stall $end
$var reg 1 ' register_file_write $end
$var reg 3 _ register_file_write_data_select [2:0] $end
$upscope $end
$scope module data_memory $end
$var wire 10 ` address [9:0] $end
$var wire 1 ! clk $end
$var wire 1 4 read_enable $end
$var wire 32 a write_data [31:0] $end
$var wire 1 3 write_enable $end
$var wire 4 b write_mask [3:0] $end
$var wire 32 c extended_mask [31:0] $end
$var reg 32 d read_data [31:0] $end
$var reg 1 ( read_done $end
$upscope $end
$scope module immediate_generator $end
$var wire 20 e raw_imm [19:0] $end
$var wire 7 f opcode [6:0] $end
$var reg 32 g imm [31:0] $end
$upscope $end
$scope module instruction_decoder $end
$var wire 32 h instr [31:0] $end
$var reg 3 i funct3 [2:0] $end
$var reg 7 j funct7 [6:0] $end
$var reg 7 k opcode [6:0] $end
$var reg 20 l raw_imm [19:0] $end
$var reg 5 m rd [4:0] $end
$var reg 5 n rs1 [4:0] $end
$var reg 5 o rs2 [4:0] $end
$upscope $end
$scope module instruction_memory $end
$var wire 32 p pc [31:0] $end
$var reg 32 q instruction [31:0] $end
$upscope $end
$scope module pc_aligner $end
$var wire 32 r raw_next_pc [31:0] $end
$var reg 32 s next_pc [31:0] $end
$upscope $end
$scope module pc_controller $end
$var wire 1 = branch_taken $end
$var wire 32 t imm [31:0] $end
$var wire 1 5 jump $end
$var wire 32 u jump_target [31:0] $end
$var wire 1 . pc_stall $end
$var wire 32 v trap_target [31:0] $end
$var wire 1 w trapped $end
$var wire 1 x write_done $end
$var wire 32 y pc [31:0] $end
$var reg 32 z next_pc [31:0] $end
$upscope $end
$scope module pc_plus_4 $end
$var wire 32 { pc [31:0] $end
$var reg 32 | pc_plus_4 [31:0] $end
$upscope $end
$scope module program_counter $end
$var wire 1 ! clk $end
$var wire 32 } next_pc [31:0] $end
$var wire 1 " reset $end
$var reg 32 ~ pc [31:0] $end
$upscope $end
$scope module register_file $end
$var wire 1 ! clk $end
$var wire 5 !" read_reg1 [4:0] $end
$var wire 5 "" read_reg2 [4:0] $end
$var wire 32 #" write_data [31:0] $end
$var wire 1 ' write_enable $end
$var wire 5 $" write_reg [4:0] $end
$var reg 32 %" read_data1 [31:0] $end
$var reg 32 &" read_data2 [31:0] $end
$upscope $end
$upscope $end
$upscope $end
$enddefinitions $end
$comment Show the parameter values. $end
$dumpall
$end
#0
$dumpvars
b0 &"
b0 %"
b1 $"
b1010111100 #"
b0 ""
b0 !"
b0 ~
b100 }
b100 |
b0 {
b100 z
b0 y
1x
0w
b0 v
b1010111100 u
b1010111100 t
b100 s
b100 r
b101011110000000000000010010011 q
b0 p
b0 o
b0 n
b1 m
b1010111100 l
b10011 k
b0 j
b0 i
b101011110000000000000010010011 h
b1010111100 g
b10011 f
b1010111100 e
bx d
b0 c
b0 b
b0 a
b10101111 `
b10 _
b0 ^
b10 ]
b1 \
b0 [
b10011 Z
1Y
b0 X
b0 W
0V
b0 U
bx T
b0 S
b0 R
b1010111100 Q
b0 P
b0 O
b0 N
b10011 M
0L
0K
b1010111100 J
b0 I
b1010111100 H
b0 G
b1010111100 F
b0 E
b1010111100 D
b0 C
b1010111100 B
b1 A
b10 @
0?
0>
0=
b0 <
bx ;
b0 :
b0 9
b0 8
b1010111100 7
b101011110000000000000010010011 6
05
04
03
b100 2
b10011 1
b0 0
b100 /
0.
b1010111100 -
b100 ,
b1 +
b0 *
b0 )
x(
1'
b10 &
b0 %
b0 $
b0 #
1"
0!
$end
#5000
0(
b0 ;
b0 T
b0 d
1!
#10000
0!
0"
#15000
b0 `
b10111100000000000000000000000000 D
b10111100000000000000000000000000 #"
b11000 F
b11000 H
b1010111100 E
b1010111100 G
0?
b10111100000000000000000000000000 B
b10111100000000000000000000000000 J
b10111100000000000000000000000000 Q
b10111100000000000000000000000000 u
b11000 7
b11000 g
b11000 t
b1010111100 *
b1010111100 %"
b111 C
b111 I
b111 O
b11000 -
b11000 e
b11000 l
b1 %
b1 n
b1 !"
b1 9
b1 N
b1 P
b1 S
b1 [
b1 i
b10 +
b10 m
b10 $"
b1000 2
b1000 s
b1000 }
b1100000001001000100010011 6
b1100000001001000100010011 h
b1100000001001000100010011 q
b1000 ,
b1000 r
b1000 z
b1000 /
b1000 |
b100 0
b100 p
b100 y
b100 {
b100 ~
1!
#20000
0!
#25000
b1 D
b1 #"
b0 F
b0 H
b10111100000000000000000000000000 E
b10111100000000000000000000000000 G
0?
b1 B
b1 J
b1 Q
b1 u
b0 7
b0 g
b0 t
b10111100000000000000000000000000 *
b10111100000000000000000000000000 %"
b101 C
b101 I
b101 O
b0 -
b0 e
b0 l
b10 %
b10 n
b10 !"
b10 9
b10 N
b10 P
b10 S
b10 [
b10 i
b11 +
b11 m
b11 $"
b1100 2
b1100 s
b1100 }
b10010000110010011 6
b10010000110010011 h
b10010000110010011 q
b1100 ,
b1100 r
b1100 z
b1100 /
b1100 |
b1000 0
b1000 p
b1000 y
b1000 {
b1000 ~
1!
#30000
0!
#35000
b0 D
b0 #"
1?
b0 B
b0 J
b0 Q
b0 u
b110 C
b110 I
b110 O
b11 9
b11 N
b11 P
b11 S
b11 [
b11 i
b100 +
b100 m
b100 $"
b10000 2
b10000 s
b10000 }
b10011001000010011 6
b10011001000010011 h
b10011001000010011 q
b10000 ,
b10000 r
b10000 z
b10000 /
b10000 |
b1100 0
b1100 p
b1100 y
b1100 {
b1100 ~
1!
#40000
0!
#45000
b100111011 `
1L
b10011101111 D
b10011101111 #"
b11001010011 F
b11001010011 H
b1010111100 E
b1010111100 G
0?
b10011101111 B
b10011101111 J
b10011101111 Q
b10011101111 u
b11001010011 7
b11001010011 g
b11001010011 t
b1010111100 *
b1010111100 %"
b100 C
b100 I
b100 O
b11001010011 -
b11001010011 e
b11001010011 l
b1 %
b1 n
b1 !"
b100 9
b100 N
b100 P
b100 S
b100 [
b100 i
b101 +
b101 m
b101 $"
b10100 2
b10100 s
b10100 }
b1100101001100001100001010010011 6
b1100101001100001100001010010011 h
b1100101001100001100001010010011 q
b10100 ,
b10100 r
b10100 z
b10100 /
b10100 |
b10000 0
b10000 p
b10000 y
b10000 {
b10000 ~
1!
#50000
0!
#55000
b0 `
b1011110000000000000000000000 D
b1011110000000000000000000000 #"
0L
b1011110000000000000000000000 B
b1011110000000000000000000000 J
b1011110000000000000000000000 Q
b1011110000000000000000000000 u
b100 F
b100 H
b10111100000000000000000000000000 E
b10111100000000000000000000000000 G
b100 7
b100 g
b100 t
b10111100000000000000000000000000 *
b10111100000000000000000000000000 %"
b1000 C
b1000 I
b1000 O
b100 @
b100 ]
b100 -
b100 e
b100 l
b10 %
b10 n
b10 !"
b101 9
b101 N
b101 P
b101 S
b101 [
b101 i
b110 +
b110 m
b110 $"
b11000 2
b11000 s
b11000 }
b10000010101001100010011 6
b10000010101001100010011 h
b10000010101001100010011 q
b11000 ,
b11000 r
b11000 z
b11000 /
b11000 |
b10100 0
b10100 p
b10100 y
b10100 {
b10100 ~
1!
#60000
0!
#65000
b11111011110000000000000000000000 D
b11111011110000000000000000000000 #"
b11111011110000000000000000000000 B
b11111011110000000000000000000000 J
b11111011110000000000000000000000 Q
b11111011110000000000000000000000 u
b1001 C
b1001 I
b1001 O
1L
b10000000100 7
b10000000100 g
b10000000100 t
b10000000100 -
b10000000100 e
b10000000100 l
b111 +
b111 m
b111 $"
b11100 2
b11100 s
b11100 }
b1000000010000010101001110010011 6
b1000000010000010101001110010011 h
b1000000010000010101001110010011 q
b11100 ,
b11100 r
b11100 z
b11100 /
b11100 |
b11000 0
b11000 p
b11000 y
b11000 {
b11000 ~
1!
#70000
0!
#75000
b101111 `
b10111100000000000000000010111100 D
b10111100000000000000000010111100 #"
0L
b10111100000000000000000010111100 B
b10111100000000000000000010111100 J
b10111100000000000000000010111100 Q
b10111100000000000000000010111100 u
b10111100 F
b10111100 H
b10111100 7
b10111100 g
b10111100 t
b11 C
b11 I
b11 O
b10 @
b10 ]
b10111100 -
b10111100 e
b10111100 l
b110 9
b110 N
b110 P
b110 S
b110 [
b110 i
b1000 +
b1000 m
b1000 $"
b100000 2
b100000 s
b100000 }
b1011110000010110010000010011 6
b1011110000010110010000010011 h
b1011110000010110010000010011 q
b100000 ,
b100000 r
b100000 z
b100000 /
b100000 |
b11100 0
b11100 p
b11100 y
b11100 {
b11100 ~
1!
#80000
0!
#85000
b111011 `
b11101100 D
b11101100 #"
b11101100 F
b11101100 H
b10011101111 E
b10011101111 G
0?
b11101100 B
b11101100 J
b11101100 Q
b11101100 u
b11101100 7
b11101100 g
b11101100 t
b10011101111 *
b10011101111 %"
b10 C
b10 I
b10 O
b11101100 -
b11101100 e
b11101100 l
b101 %
b101 n
b101 !"
b111 9
b111 N
b111 P
b111 S
b111 [
b111 i
b1001 +
b1001 m
b1001 $"
b100100 2
b100100 s
b100100 }
b1110110000101111010010010011 6
b1110110000101111010010010011 h
b1110110000101111010010010011 q
b100100 ,
b100100 r
b100100 z
b100100 /
b100100 |
b100000 0
b100000 p
b100000 y
b100000 {
b100000 ~
1!
#90000
0!
#95000
b11101010 `
b1110101000 D
b1110101000 #"
b1110101000 B
b1110101000 J
b1110101000 Q
b1110101000 u
b1010111100 E
b1010111100 G
b11101100 )
b11101100 R
b11101100 &"
b1010111100 *
b1010111100 %"
b0 C
b0 I
b0 O
b1 @
b1 ]
b0 7
b0 g
b0 t
b0 -
b0 e
b0 l
b1001 $
b1001 o
b1001 ""
b1 %
b1 n
b1 !"
b0 9
b0 N
b0 P
b0 S
b0 [
b0 i
b1010 +
b1010 m
b1010 $"
b110011 1
b110011 M
b110011 Z
b110011 f
b110011 k
b101000 2
b101000 s
b101000 }
b100100001000010100110011 6
b100100001000010100110011 h
b100100001000010100110011 q
b101000 ,
b101000 r
b101000 z
b101000 /
b101000 |
b100100 0
b100100 p
b100100 y
b100100 {
b100100 ~
1!
#100000
0!
#105000
b1011000100 `
b1011101111111111101100010001 D
b1011101111111111101100010001 #"
b1011101111111111101100010001 B
b1011101111111111101100010001 J
b1011101111111111101100010001 Q
b1011101111111111101100010001 u
b1 C
b1 I
b1 O
b10011101111 F
b10011101111 H
b1011110000000000000000000000 E
b1011110000000000000000000000 G
1K
b10011101111 )
b10011101111 R
b10011101111 &"
b1011110000000000000000000000 *
b1011110000000000000000000000 %"
b100000 8
b100000 j
b101 $
b101 o
b101 ""
b110 %
b110 n
b110 !"
b1011 +
b1011 m
b1011 $"
b101100 2
b101100 s
b101100 }
b1000000010100110000010110110011 6
b1000000010100110000010110110011 h
b1000000010100110000010110110011 q
b101100 ,
b101100 r
b101100 z
b101100 /
b101100 |
b101000 0
b101000 p
b101000 y
b101000 {
b101000 ~
1!
#110000
0!
#115000
b0 `
b11110111100000000000000000000000 D
b11110111100000000000000000000000 #"
b1 F
b1 H
b11111011110000000000000000000000 E
b11111011110000000000000000000000 G
0?
b11110111100000000000000000000000 B
b11110111100000000000000000000000 J
b11110111100000000000000000000000 Q
b11110111100000000000000000000000 u
0K
b1 )
b1 R
b1 &"
b11111011110000000000000000000000 *
b11111011110000000000000000000000 %"
b111 C
b111 I
b111 O
b0 8
b0 j
b11 $
b11 o
b11 ""
b111 %
b111 n
b111 !"
b1 9
b1 N
b1 P
b1 S
b1 [
b1 i
b1100 +
b1100 m
b1100 $"
b110000 2
b110000 s
b110000 }
b1100111001011000110011 6
b1100111001011000110011 h
b1100111001011000110011 q
b110000 ,
b110000 r
b110000 z
b110000 /
b110000 |
b101100 0
b101100 p
b101100 y
b101100 {
b101100 ~
1!
#120000
0!
#125000
1?
b0 D
b0 #"
b10111100000000000000000000000000 F
b10111100000000000000000000000000 H
b1010111100 E
b1010111100 G
b0 B
b0 J
b0 Q
b0 u
b10111100000000000000000000000000 )
b10111100000000000000000000000000 R
b10111100000000000000000000000000 &"
b1010111100 *
b1010111100 %"
b101 C
b101 I
b101 O
b10 $
b10 o
b10 ""
b1 %
b1 n
b1 !"
b10 9
b10 N
b10 P
b10 S
b10 [
b10 i
b1101 +
b1101 m
b1101 $"
b110100 2
b110100 s
b110100 }
b1000001010011010110011 6
b1000001010011010110011 h
b1000001010011010110011 q
b110100 ,
b110100 r
b110100 z
b110100 /
b110100 |
b110000 0
b110000 p
b110000 y
b110000 {
b110000 ~
1!
#130000
0!
#135000
b1 D
b1 #"
0?
b1 B
b1 J
b1 Q
b1 u
b110 C
b110 I
b110 O
b11 9
b11 N
b11 P
b11 S
b11 [
b11 i
b1110 +
b1110 m
b1110 $"
b111000 2
b111000 s
b111000 }
b1000001011011100110011 6
b1000001011011100110011 h
b1000001011011100110011 q
b111000 ,
b111000 r
b111000 z
b111000 /
b111000 |
b110100 0
b110100 p
b110100 y
b110100 {
b110100 ~
1!
#140000
0!
#145000
b101111 `
b1001011100000000000000010111100 D
b1001011100000000000000010111100 #"
b10111100000000000000000010111100 F
b10111100000000000000000010111100 H
b11110111100000000000000000000000 E
b11110111100000000000000000000000 G
b1001011100000000000000010111100 B
b1001011100000000000000010111100 J
b1001011100000000000000010111100 Q
b1001011100000000000000010111100 u
b10111100000000000000000010111100 )
b10111100000000000000000010111100 R
b10111100000000000000000010111100 &"
b11110111100000000000000000000000 *
b11110111100000000000000000000000 %"
b100 C
b100 I
b100 O
b1000 $
b1000 o
b1000 ""
b1100 %
b1100 n
b1100 !"
b100 9
b100 N
b100 P
b100 S
b100 [
b100 i
b1111 +
b1111 m
b1111 $"
b111100 2
b111100 s
b111100 }
b100001100100011110110011 6
b100001100100011110110011 h
b100001100100011110110011 q
b111100 ,
b111100 r
b111100 z
b111100 /
b111100 |
b111000 0
b111000 p
b111000 y
b111000 {
b111000 ~
1!
#150000
0!
#155000
b0 `
b1111011110000000000000000000000 D
b1111011110000000000000000000000 #"
b1 F
b1 H
0?
b1111011110000000000000000000000 B
b1111011110000000000000000000000 J
b1111011110000000000000000000000 Q
b1111011110000000000000000000000 u
b1 )
b1 R
b1 &"
b1000 C
b1000 I
b1000 O
b11 $
b11 o
b11 ""
b101 9
b101 N
b101 P
b101 S
b101 [
b101 i
b10000 +
b10000 m
b10000 $"
b1000000 2
b1000000 s
b1000000 }
b1101100101100000110011 6
b1101100101100000110011 h
b1101100101100000110011 q
b1000000 ,
b1000000 r
b1000000 z
b1000000 /
b1000000 |
b111100 0
b111100 p
b111100 y
b111100 {
b111100 ~
1!
#160000
0!
#165000
b11111011110000000000000000000000 D
b11111011110000000000000000000000 #"
b11111011110000000000000000000000 B
b11111011110000000000000000000000 J
b11111011110000000000000000000000 Q
b11111011110000000000000000000000 u
b1001 C
b1001 I
b1001 O
1K
b100000 8
b100000 j
b10001 +
b10001 m
b10001 $"
b1000100 2
b1000100 s
b1000100 }
b1000000001101100101100010110011 6
b1000000001101100101100010110011 h
b1000000001101100101100010110011 q
b1000100 ,
b1000100 r
b1000100 z
b1000100 /
b1000100 |
b1000000 0
b1000000 p
b1000000 y
b1000000 {
b1000000 ~
1!
#170000
0!
#175000
b1011000100 `
b11111011111111111111101100010001 D
b11111011111111111111101100010001 #"
b11111011110000000000000000000000 F
b11111011110000000000000000000000 H
b1011101111111111101100010001 E
b1011101111111111101100010001 G
b11111011111111111111101100010001 B
b11111011111111111111101100010001 J
b11111011111111111111101100010001 Q
b11111011111111111111101100010001 u
0K
b11111011110000000000000000000000 )
b11111011110000000000000000000000 R
b11111011110000000000000000000000 &"
b1011101111111111101100010001 *
b1011101111111111101100010001 %"
b11 C
b11 I
b11 O
b0 8
b0 j
b111 $
b111 o
b111 ""
b1011 %
b1011 n
b1011 !"
b110 9
b110 N
b110 P
b110 S
b110 [
b110 i
b10010 +
b10010 m
b10010 $"
b1001000 2
b1001000 s
b1001000 }
b11101011110100100110011 6
b11101011110100100110011 h
b11101011110100100110011 q
b1001000 ,
b1001000 r
b1001000 z
b1001000 /
b1001000 |
b1000100 0
b1000100 p
b1000100 y
b1000100 {
b1000100 ~
1!
#180000
0!
#185000
b0 `
b1011100000000000000000000000 D
b1011100000000000000000000000 #"
b1011101111111111101100010001 F
b1011101111111111101100010001 H
b11111011110000000000000000000000 E
b11111011110000000000000000000000 G
b1011100000000000000000000000 B
b1011100000000000000000000000 J
b1011100000000000000000000000 Q
b1011100000000000000000000000 u
b1011101111111111101100010001 )
b1011101111111111101100010001 R
b1011101111111111101100010001 &"
b11111011110000000000000000000000 *
b11111011110000000000000000000000 %"
b10 C
b10 I
b10 O
b1011 $
b1011 o
b1011 ""
b111 %
b111 n
b111 !"
b111 9
b111 N
b111 P
b111 S
b111 [
b111 i
b10011 +
b10011 m
b10011 $"
b1001100 2
b1001100 s
b1001100 }
b101100111111100110110011 6
b101100111111100110110011 h
b101100111111100110110011 q
b1001100 ,
b1001100 r
b1001100 z
b1001100 /
b1001100 |
b1001000 0
b1001000 p
b1001000 y
b1001000 {
b1001000 ~
1!
#190000
0!
#195000
b10110000 `
b11111111111111111111111111111111 c
b1011000000 B
b1011000000 J
b1011000000 Q
b1011000000 u
b0 D
b0 #"
b100 F
b100 H
b1010111100 E
b1010111100 G
b1010111100 *
b1010111100 %"
b1111 #
b1111 X
b1111 b
b1011101111111111101100010001 :
b1011101111111111101100010001 U
b1011101111111111101100010001 a
b0 C
b0 I
b0 O
13
b0 &
b0 _
0'
b10 @
b10 ]
b100 7
b100 g
b100 t
b0 +
b0 m
b0 $"
b100 -
b100 e
b100 l
b1 %
b1 n
b1 !"
b10 9
b10 N
b10 P
b10 S
b10 [
b10 i
b100011 1
b100011 M
b100011 Z
b100011 f
b100011 k
b1010000 2
b1010000 s
b1010000 }
b101100001010001000100011 6
b101100001010001000100011 h
b101100001010001000100011 q
b1010000 ,
b1010000 r
b1010000 z
b1010000 /
b1010000 |
b1001100 0
b1001100 p
b1001100 y
b1001100 {
b1001100 ~
1!
#200000
0!
#205000
1V
b1011000011 B
b1011000011 J
b1011000011 Q
b1011000011 u
b111 F
b111 H
b0 c
b111 7
b111 g
b111 t
b1110101000 )
b1110101000 R
b1110101000 &"
b0 #
b0 X
b0 b
b11101010000000001110101000 :
b11101010000000001110101000 U
b11101010000000001110101000 a
b111 -
b111 e
b111 l
b1010 $
b1010 o
b1010 ""
b1 9
b1 N
b1 P
b1 S
b1 [
b1 i
b1010100 2
b1010100 s
b1010100 }
b101000001001001110100011 6
b101000001001001110100011 h
b101000001001001110100011 q
b1010100 ,
b1010100 r
b1010100 z
b1010100 /
b1010100 |
b1010000 0
b1010000 p
b1010000 y
b1010000 {
b1010000 ~
1!
#210000
0!
#215000
b1011000000 B
b1011000000 J
b1011000000 Q
b1011000000 u
b100 F
b100 H
b11111111 c
b100 7
b100 g
b100 t
b1001011100000000000000010111100 )
b1001011100000000000000010111100 R
b1001011100000000000000010111100 &"
0V
b1 #
b1 X
b1 b
b10111100101111001011110010111100 :
b10111100101111001011110010111100 U
b10111100101111001011110010111100 a
b100 -
b100 e
b100 l
b1111 $
b1111 o
b1111 ""
b0 9
b0 N
b0 P
b0 S
b0 [
b0 i
b1011000 2
b1011000 s
b1011000 }
b111100001000001000100011 6
b111100001000001000100011 h
b111100001000001000100011 q
b1011000 ,
b1011000 r
b1011000 z
b1011000 /
b1011000 |
b1010100 0
b1010100 p
b1010100 y
b1010100 {
b1010100 ~
1!
#220000
0!
#225000
b1011000001 B
b1011000001 J
b1011000001 Q
b1011000001 u
b0 c
b101 F
b101 H
b0 )
b0 R
b0 &"
b0 #
b0 X
b0 b
b0 :
b0 U
b0 a
1.
03
14
b1 &
b1 _
1'
b101 7
b101 g
b101 t
b0 $
b0 o
b0 ""
b101 -
b101 e
b101 l
b10 9
b10 N
b10 P
b10 S
b10 [
b10 i
b10100 +
b10100 m
b10100 $"
b11 1
b11 M
b11 Z
b11 f
b11 k
b1011000 2
b1011000 s
b1011000 }
b10100001010101000000011 6
b10100001010101000000011 h
b10100001010101000000011 q
b1011000 ,
b1011000 r
b1011000 z
b1011100 /
b1011100 |
b1011000 0
b1011000 p
b1011000 y
b1011000 {
b1011000 ~
1!
#230000
0!
#235000
b1011100 2
b1011100 s
b1011100 }
b1011100 ,
b1011100 r
b1011100 z
b1011101111111111101110111100 D
b1011101111111111101110111100 #"
0.
b1011101111111111101110111100 <
b1011101111111111101110111100 W
1(
b1011101111111111101110111100 ;
b1011101111111111101110111100 T
b1011101111111111101110111100 d
1!
#240000
0!
#245000
b1011000000 B
b1011000000 J
b1011000000 Q
b1011000000 u
b11111111111111111111101110111100 D
b11111111111111111111101110111100 #"
b100 F
b100 H
b100 7
b100 g
b100 t
b11111111111111111111101110111100 <
b11111111111111111111101110111100 W
b100 -
b100 e
b100 l
b1 9
b1 N
b1 P
b1 S
b1 [
b1 i
b10101 +
b10101 m
b10101 $"
b1100000 2
b1100000 s
b1100000 }
b10000001001101010000011 6
b10000001001101010000011 h
b10000001001101010000011 q
b1100000 ,
b1100000 r
b1100000 z
b1100000 /
b1100000 |
b1011100 0
b1011100 p
b1011100 y
b1011100 {
b1011100 ~
1!
#250000
0!
#255000
b11111111111111111111111110111100 D
b11111111111111111111111110111100 #"
b11111111111111111111111110111100 <
b11111111111111111111111110111100 W
b0 9
b0 N
b0 P
b0 S
b0 [
b0 i
b10110 +
b10110 m
b10110 $"
b1100100 2
b1100100 s
b1100100 }
b10000001000101100000011 6
b10000001000101100000011 h
b10000001000101100000011 q
b1100100 ,
b1100100 r
b1100100 z
b1100100 /
b1100100 |
b1100000 0
b1100000 p
b1100000 y
b1100000 {
b1100000 ~
1!
#260000
0!
#265000
b1111101110111100 D
b1111101110111100 #"
b1111101110111100 <
b1111101110111100 W
b101 9
b101 N
b101 P
b101 S
b101 [
b101 i
b10111 +
b10111 m
b10111 $"
b1101000 2
b1101000 s
b1101000 }
b10000001101101110000011 6
b10000001101101110000011 h
b10000001101101110000011 q
b1101000 ,
b1101000 r
b1101000 z
b1101000 /
b1101000 |
b1100100 0
b1100100 p
b1100100 y
b1100100 {
b1100100 ~
1!
#270000
0!
#275000
b10111100 D
b10111100 #"
b10111100 <
b10111100 W
b100 9
b100 N
b100 P
b100 S
b100 [
b100 i
b11000 +
b11000 m
b11000 $"
b1101100 2
b1101100 s
b1101100 }
b10000001100110000000011 6
b10000001100110000000011 h
b10000001100110000000011 q
b1101100 ,
b1101100 r
b1101100 z
b1101100 /
b1101100 |
b1101000 0
b1101000 p
b1101000 y
b1101000 {
b1101000 ~
1!
#280000
0!
#285000
b0 `
1?
b0 B
b0 J
b0 Q
b0 u
b1000000000000 D
b1000000000000 #"
b0 F
b0 H
b0 E
b0 G
b0 *
b0 %"
b0 <
b0 W
b1111 C
b1111 I
b1111 O
04
b100 &
b100 _
b0 @
b0 ]
b0 A
b0 \
b1000000000000 7
b1000000000000 g
b1000000000000 t
b0 %
b0 n
b0 !"
b0 9
b0 N
b0 P
b0 S
b0 [
b0 i
b1 -
b1 e
b1 l
b11001 +
b11001 m
b11001 $"
b110111 1
b110111 M
b110111 Z
b110111 f
b110111 k
b1110000 2
b1110000 s
b1110000 }
b1110010110111 6
b1110010110111 h
b1110010110111 q
b1110000 ,
b1110000 r
b1110000 z
b1110000 /
b1110000 |
b1101100 0
b1101100 p
b1101100 y
b1101100 {
b1101100 ~
1!
#290000
0!
#295000
b11100 `
0?
b1000001110000 B
b1000001110000 J
b1000001110000 Q
b1000001110000 u
b1000001110000 D
b1000001110000 #"
b1000000000000 F
b1000000000000 H
b1110000 E
b1110000 G
b0 C
b0 I
b0 O
b10 &
b10 _
b10 @
b10 ]
b10 A
b10 \
b11010 +
b11010 m
b11010 $"
b10111 1
b10111 M
b10111 Z
b10111 f
b10111 k
b1110100 2
b1110100 s
b1110100 }
b1110100010111 6
b1110100010111 h
b1110100010111 q
b1110100 ,
b1110100 r
b1110100 z
b1110100 /
b1110100 |
0(
b0 ;
b0 T
b0 d
b1110000 0
b1110000 p
b1110000 y
b1110000 {
b1110000 ~
1!
#300000
0!
#305000
b100100 `
b1111000 D
b1111000 #"
b11110 F
b11110 H
b101 &
b101 _
15
b11110 7
b11110 g
b11110 t
b10010010 B
b10010010 J
b10010010 Q
b10010010 u
b1111 -
b1111 e
b1111 l
b11011 +
b11011 m
b11011 $"
b1101111 1
b1101111 M
b1101111 Z
b1101111 f
b1101111 k
b10010000 2
b10010000 s
b10010000 }
b1110100 E
b1110100 G
b1111000000000110111101111 6
b1111000000000110111101111 h
b1111000000000110111101111 q
b10010010 ,
b10010010 r
b10010010 z
b1111000 /
b1111000 |
b1110100 0
b1110100 p
b1110100 y
b1110100 {
b1110100 ~
1!
#310000
0!
#315000
b1111000 2
b1111000 s
b1111000 }
b1111000 ,
b1111000 r
b1111000 z
b11110 `
b0 F
b0 H
b1111000 *
b1111000 %"
b1 A
b1 \
b0 7
b0 g
b0 t
b1111000 B
b1111000 J
b1111000 Q
b1111000 u
b0 -
b0 e
b0 l
b11011 %
b11011 n
b11011 !"
b11100 +
b11100 m
b11100 $"
b1100111 1
b1100111 M
b1100111 Z
b1100111 f
b1100111 k
b10010100 D
b10010100 #"
b1111000 E
b1111000 G
b11011000111001100111 6
b11011000111001100111 h
b11011000111001100111 q
b10010100 /
b10010100 |
b10010000 0
b10010000 p
b10010000 y
b10010000 {
b10010000 ~
1!
#320000
0!
#325000
b10101111 `
b1111100 2
b1111100 s
b1111100 }
b1000100000000000000001010111100 B
b1000100000000000000001010111100 J
b1000100000000000000001010111100 Q
b1000100000000000000001010111100 u
b1111100 ,
b1111100 r
b1111100 z
b10111100000000000000000000000000 F
b10111100000000000000000000000000 H
b1010111100 E
b1010111100 G
b10111100000000000000000000000000 )
b10111100000000000000000000000000 R
b10111100000000000000000000000000 &"
b1010111100 *
b1010111100 %"
b1 C
b1 I
b1 O
b0 &
b0 _
0'
b1 @
b1 ]
1>
05
b1000 7
b1000 g
b1000 t
b0 +
b0 m
b0 $"
b100 -
b100 e
b100 l
b10 $
b10 o
b10 ""
b1 %
b1 n
b1 !"
b1100011 1
b1100011 M
b1100011 Z
b1100011 f
b1100011 k
b0 D
b0 #"
b1000001000010001100011 6
b1000001000010001100011 h
b1000001000010001100011 q
b1111100 /
b1111100 |
b1111000 0
b1111000 p
b1111000 y
b1111000 {
b1111000 ~
1!
#330000
0!
