RV32I/testbenches/results/waveforms/RV32I37F_tb_result.vcd
$date
	Sat Feb 22 14:56:52 2025
$end
$version
	Icarus Verilog
$end
$timescale
	1ps
$end
$scope module RV32I37F_tb $end
$scope module rv32i37f $end
$var wire 1 ! clk $end
$var wire 1 " reset $end
$var wire 4 # write_mask [3:0] $end
$var wire 5 $ rs2 [4:0] $end
$var wire 5 % rs1 [4:0] $end
$var wire 3 & register_file_write_data_select [2:0] $end
$var wire 1 ' register_file_write $end
$var wire 32 ( read_data2 [31:0] $end
$var wire 32 ) read_data1 [31:0] $end
$var wire 5 * rd [4:0] $end
$var wire 32 + raw_imm [31:0] $end
$var wire 32 , pc_plus_4_signal [31:0] $end
$var wire 32 - pc [31:0] $end
$var wire 7 . opcode [6:0] $end
$var wire 32 / next_pc [31:0] $end
$var wire 1 0 memory_write $end
$var wire 1 1 memory_read $end
$var wire 1 2 jump $end
$var wire 32 3 instruction [31:0] $end
$var wire 32 4 imm [31:0] $end
$var wire 7 5 funct7 [6:0] $end
$var wire 3 6 funct3 [2:0] $end
$var wire 32 7 data_memory_write_data [31:0] $end
$var wire 32 8 data_memory_read_data [31:0] $end
$var wire 32 9 byte_enable_logic_register_file_write_data [31:0] $end
$var wire 1 : branch_taken $end
$var wire 1 ; branch $end
$var wire 1 < alu_zero $end
$var wire 2 = alu_src_B_select [1:0] $end
$var wire 2 > alu_src_A_select [1:0] $end
$var wire 32 ? alu_result [31:0] $end
$var wire 4 @ alu_op [3:0] $end
$var reg 32 A register_file_write_data [31:0] $end
$var reg 32 B src_A [31:0] $end
$var reg 32 C src_B [31:0] $end
$scope module alu $end
$var wire 32 D src_A [31:0] $end
$var wire 32 E src_B [31:0] $end
$var wire 4 F alu_op [3:0] $end
$var reg 32 G alu_result [31:0] $end
$var reg 1 < alu_zero $end
$upscope $end
$scope module alu_controller $end
$var wire 1 H funct7_5 $end
$var wire 1 I imm_10 $end
$var wire 7 J opcode [6:0] $end
$var wire 3 K funct3 [2:0] $end
$var reg 4 L alu_op [3:0] $end
$upscope $end
$scope module branch_logic $end
$var wire 1 < alu_zero $end
$var wire 3 M funct3 [2:0] $end
$var wire 1 ; branch $end
$var reg 1 : branch_taken $end
$upscope $end
$scope module byte_enable_logic $end
$var wire 32 N address [31:0] $end
$var wire 32 O register_file_read_data [31:0] $end
$var wire 1 0 memory_write $end
$var wire 1 1 memory_read $end
$var wire 3 P funct3 [2:0] $end
$var wire 32 Q data_memory_read_data [31:0] $end
$var reg 32 R data_memory_write_data [31:0] $end
$var reg 1 S misaligned $end
$var reg 32 T register_file_write_data [31:0] $end
$var reg 4 U write_mask [3:0] $end
$upscope $end
$scope module control_unit $end
$var wire 1 V write_done $end
$var wire 7 W opcode [6:0] $end
$var wire 3 X funct3 [2:0] $end
$var reg 2 Y alu_src_A_select [1:0] $end
$var reg 2 Z alu_src_B_select [1:0] $end
$var reg 1 ; branch $end
$var reg 3 [ csr_op [2:0] $end
$var reg 1 2 jump $end
$var reg 1 1 memory_read $end
$var reg 1 0 memory_write $end
$var reg 1 ' register_file_write $end
$var reg 3 \ register_file_write_data_select [2:0] $end
$upscope $end
$scope module data_memory $end
$var wire 10 ] address [9:0] $end
$var wire 1 ! clk $end
$var wire 1 1 read_enable $end
$var wire 32 ^ write_data [31:0] $end
$var wire 1 0 write_enable $end
$var wire 4 _ write_mask [3:0] $end
$var reg 32 ` extended_mask [31:0] $end
$var reg 32 a read_data [31:0] $end
$upscope $end
$scope module immediate_generator $end
$var wire 32 b raw_imm [31:0] $end
$var wire 7 c opcode [6:0] $end
$var reg 32 d imm [31:0] $end
$upscope $end
$scope module instruction_decoder $end
$var wire 32 e instr [31:0] $end
$var reg 3 f funct3 [2:0] $end
$var reg 7 g funct7 [6:0] $end
$var reg 32 h imm [31:0] $end
$var reg 7 i opcode [6:0] $end
$var reg 5 j rd [4:0] $end
$var reg 5 k rs1 [4:0] $end
$var reg 5 l rs2 [4:0] $end
$upscope $end
$scope module instruction_memory $end
$var wire 32 m pc [31:0] $end
$var reg 32 n instruction [31:0] $end
$upscope $end
$scope module pc_controller $end
$var wire 1 : branch_taken $end
$var wire 32 o imm [31:0] $end
$var wire 1 2 jump $end
$var wire 32 p jump_target [31:0] $end
$var wire 32 q trap_target [31:0] $end
$var wire 1 r trapped $end
$var wire 1 s write_done $end
$var wire 32 t pc [31:0] $end
$var reg 32 u next_pc [31:0] $end
$upscope $end
$scope module pc_plus_4 $end
$var wire 32 v pc [31:0] $end
$var reg 32 w pc_plus_4 [31:0] $end
$upscope $end
$scope module program_counter $end
$var wire 1 ! clk $end
$var wire 32 x next_pc [31:0] $end
$var wire 1 " reset $end
$var reg 32 y pc [31:0] $end
$upscope $end
$scope module register_file $end
$var wire 1 ! clk $end
$var wire 5 z read_reg1 [4:0] $end
$var wire 5 { read_reg2 [4:0] $end
$var wire 32 | write_data [31:0] $end
$var wire 1 ' write_enable $end
$var wire 5 } write_reg [4:0] $end
$var reg 32 ~ read_data1 [31:0] $end
$var reg 32 !" read_data2 [31:0] $end
$upscope $end
$upscope $end
$upscope $end
$enddefinitions $end
$comment Show the parameter values. $end
$dumpall
$end
#0
$dumpvars
b0 !"
b0 ~
b1 }
b11111111111111111111111111111110 |
b0 {
b0 z
b0 y
b100 x
b100 w
b0 v
b100 u
b0 t
1s
0r
b0 q
b11111111111111111111111111111110 p
b11111111111111111111111111111110 o
b11111111111000000000000010010011 n
b0 m
b0 l
b0 k
b1 j
b10011 i
b111111111110 h
b0 g
b0 f
b11111111111000000000000010010011 e
b11111111111111111111111111111110 d
b10011 c
b111111111110 b
bx a
bx `
b0 _
b0 ^
b1111111111 ]
b10 \
b0 [
b10 Z
b1 Y
b0 X
b10011 W
1V
b0 U
b0 T
0S
b0 R
bx Q
b0 P
b0 O
b11111111111111111111111111111110 N
b0 M
b0 L
b0 K
b10011 J
1I
0H
b11111111111111111111111111111110 G
b0 F
b11111111111111111111111111111110 E
b0 D
b11111111111111111111111111111110 C
b0 B
b11111111111111111111111111111110 A
b0 @
b11111111111111111111111111111110 ?
b1 >
b10 =
0<
0;
0:
b0 9
bx 8
b0 7
b0 6
b0 5
b11111111111111111111111111111110 4
b11111111111000000000000010010011 3
02
01
00
b100 /
b10011 .
b0 -
b100 ,
b111111111110 +
b1 *
b0 )
b0 (
1'
b10 &
b0 %
b0 $
b0 #
1"
0!
$end
#5000
b0 8
b0 Q
b0 a
b0 `
1!
#10000
0!
0"
#15000
b0 ]
b11 A
b11 |
b11 ?
b11 G
b11 N
b11 p
0I
b11 C
b11 E
b11 4
b11 d
b11 o
b11 +
b11 b
b11 h
b10 *
b10 j
b10 }
b1100000000000100010011 3
b1100000000000100010011 e
b1100000000000100010011 n
b1000 /
b1000 u
b1000 x
b1000 ,
b1000 w
b100 -
b100 m
b100 t
b100 v
b100 y
1!
#20000
0!
#25000
b1 A
b1 |
b1 ?
b1 G
b1 N
b1 p
b11111111111111111111111111111110 B
b11111111111111111111111111111110 D
b11 (
b11 O
b11 !"
b11111111111111111111111111111110 )
b11111111111111111111111111111110 ~
b1 =
b1 Z
b0 4
b0 d
b0 o
b0 +
b0 b
b0 h
b10 $
b10 l
b10 {
b1 %
b1 k
b1 z
b11 *
b11 j
b11 }
b110011 .
b110011 J
b110011 W
b110011 c
b110011 i
b1000001000000110110011 3
b1000001000000110110011 e
b1000001000000110110011 n
b1100 /
b1100 u
b1100 x
b1100 ,
b1100 w
b1000 -
b1000 m
b1000 t
b1000 v
b1000 y
1!
#30000
0!
#35000
b1111111110 ]
b11111111111111111111111111111011 A
b11111111111111111111111111111011 |
b11111111111111111111111111111011 ?
b11111111111111111111111111111011 G
b11111111111111111111111111111011 N
b11111111111111111111111111111011 p
b1 @
b1 F
b1 L
1H
b100000 5
b100000 g
b100 *
b100 j
b100 }
b1000000001000001000001000110011 3
b1000000001000001000001000110011 e
b1000000001000001000001000110011 n
b10000 /
b10000 u
b10000 x
b10000 ,
b10000 w
b1100 -
b1100 m
b1100 t
b1100 v
b1100 y
1!
#40000
0!
#45000
b1111111100 ]
b11111111111111111111111111110000 A
b11111111111111111111111111110000 |
b11111111111111111111111111110000 ?
b11111111111111111111111111110000 G
b11111111111111111111111111110000 N
b11111111111111111111111111110000 p
0H
b111 @
b111 F
b111 L
b0 5
b0 g
b1 6
b1 K
b1 M
b1 P
b1 X
b1 f
b101 *
b101 j
b101 }
b1000001001001010110011 3
b1000001001001010110011 e
b1000001001001010110011 n
b10100 /
b10100 u
b10100 x
b10100 ,
b10100 w
b10000 -
b10000 m
b10000 t
b10000 v
b10000 y
1!
#50000
0!
#55000
b0 ]
b1 A
b1 |
b1 ?
b1 G
b1 N
b1 p
b101 @
b101 F
b101 L
b10 6
b10 K
b10 M
b10 P
b10 X
b10 f
b110 *
b110 j
b110 }
b1000001010001100110011 3
b1000001010001100110011 e
b1000001010001100110011 n
b11000 /
b11000 u
b11000 x
b11000 ,
b11000 w
b10100 -
b10100 m
b10100 t
b10100 v
b10100 y
1!
#60000
0!
#65000
b0 A
b0 |
1<
b0 ?
b0 G
b0 N
b0 p
b110 @
b110 F
b110 L
b11 6
b11 K
b11 M
b11 P
b11 X
b11 f
b111 *
b111 j
b111 }
b1000001011001110110011 3
b1000001011001110110011 e
b1000001011001110110011 n
b11100 /
b11100 u
b11100 x
b11100 ,
b11100 w
b11000 -
b11000 m
b11000 t
b11000 v
b11000 y
1!
#70000
0!
#75000
b1111111111 ]
b11111111111111111111111111111101 A
b11111111111111111111111111111101 |
0<
b11111111111111111111111111111101 ?
b11111111111111111111111111111101 G
b11111111111111111111111111111101 N
b11111111111111111111111111111101 p
b100 @
b100 F
b100 L
b100 6
b100 K
b100 M
b100 P
b100 X
b100 f
b1000 *
b1000 j
b1000 }
b1000001100010000110011 3
b1000001100010000110011 e
b1000001100010000110011 n
b100000 /
b100000 u
b100000 x
b100000 ,
b100000 w
b11100 -
b11100 m
b11100 t
b11100 v
b11100 y
1!
#80000
0!
#85000
b11111111111111111111111111111 A
b11111111111111111111111111111 |
b11111111111111111111111111111 ?
b11111111111111111111111111111 G
b11111111111111111111111111111 N
b11111111111111111111111111111 p
b1000 @
b1000 F
b1000 L
b101 6
b101 K
b101 M
b101 P
b101 X
b101 f
b1001 *
b1001 j
b1001 }
b1000001101010010110011 3
b1000001101010010110011 e
b1000001101010010110011 n
b100100 /
b100100 u
b100100 x
b100100 ,
b100100 w
b100000 -
b100000 m
b100000 t
b100000 v
b100000 y
1!
#90000
0!
#95000
b11111111111111111111111111111111 A
b11111111111111111111111111111111 |
b11111111111111111111111111111111 ?
b11111111111111111111111111111111 G
b11111111111111111111111111111111 N
b11111111111111111111111111111111 p
b1001 @
b1001 F
b1001 L
1H
b100000 5
b100000 g
b1010 *
b1010 j
b1010 }
b1000000001000001101010100110011 3
b1000000001000001101010100110011 e
b1000000001000001101010100110011 n
b101000 /
b101000 u
b101000 x
b101000 ,
b101000 w
b100100 -
b100100 m
b100100 t
b100100 v
b100100 y
1!
#100000
0!
#105000
0H
b11 @
b11 F
b11 L
b0 5
b0 g
b110 6
b110 K
b110 M
b110 P
b110 X
b110 f
b1011 *
b1011 j
b1011 }
b1000001110010110110011 3
b1000001110010110110011 e
b1000001110010110110011 n
b101100 /
b101100 u
b101100 x
b101100 ,
b101100 w
b101000 -
b101000 m
b101000 t
b101000 v
b101000 y
1!
#110000
0!
#115000
b0 ]
b10 A
b10 |
b10 ?
b10 G
b10 N
b10 p
b10 @
b10 F
b10 L
b111 6
b111 K
b111 M
b111 P
b111 X
b111 f
b1100 *
b1100 j
b1100 }
b1000001111011000110011 3
b1000001111011000110011 e
b1000001111011000110011 n
b110000 /
b110000 u
b110000 x
b110000 ,
b110000 w
b101100 -
b101100 m
b101100 t
b101100 v
b101100 y
1!
#120000
0!
#125000
b1 ?
b1 G
b1 N
b1 p
b0 A
b0 |
b1 C
b1 E
b0 B
b0 D
b1 (
b1 O
b1 !"
b0 )
b0 ~
b10 #
b10 U
b10 _
b1000000010000000100000001 7
b1000000010000000100000001 R
b1000000010000000100000001 ^
b0 @
b0 F
b0 L
10
b0 &
b0 \
0'
b10 =
b10 Z
b1 4
b1 d
b1 o
b0 *
b0 j
b0 }
b1 +
b1 b
b1 h
b11 $
b11 l
b11 {
b0 %
b0 k
b0 z
b0 6
b0 K
b0 M
b0 P
b0 X
b0 f
b100011 .
b100011 J
b100011 W
b100011 c
b100011 i
b1100000000000010100011 3
b1100000000000010100011 e
b1100000000000010100011 n
b110100 /
b110100 u
b110100 x
b110100 ,
b110100 w
b110000 -
b110000 m
b110000 t
b110000 v
b110000 y
1!
#130000
0!
#135000
b10 ?
b10 G
b10 N
b10 p
b10 C
b10 E
b10 4
b10 d
b10 o
b11111111111111111111111111111011 (
b11111111111111111111111111111011 O
b11111111111111111111111111111011 !"
0S
b1100 #
b1100 U
b1100 _
b11111111111110111111111111111011 7
b11111111111110111111111111111011 R
b11111111111110111111111111111011 ^
b10 +
b10 b
b10 h
b100 $
b100 l
b100 {
b1 6
b1 K
b1 M
b1 P
b1 X
b1 f
b10000000001000100100011 3
b10000000001000100100011 e
b10000000001000100100011 n
b111000 /
b111000 u
b111000 x
b111000 ,
b111000 w
b110100 -
b110100 m
b110100 t
b110100 v
b110100 y
b1111111100000000 `
1!
#140000
0!
#145000
b1 ]
b100 ?
b100 G
b100 N
b100 p
b100 C
b100 E
b100 4
b100 d
b100 o
b11111111111111111111111111110000 (
b11111111111111111111111111110000 O
b11111111111111111111111111110000 !"
0S
b1111 #
b1111 U
b1111 _
b11111111111111111111111111110000 7
b11111111111111111111111111110000 R
b11111111111111111111111111110000 ^
b100 +
b100 b
b100 h
b101 $
b101 l
b101 {
b10 6
b10 K
b10 M
b10 P
b10 X
b10 f
b10100000010001000100011 3
b10100000010001000100011 e
b10100000010001000100011 n
b111100 /
b111100 u
b111100 x
b111100 ,
b111100 w
b111000 -
b111000 m
b111000 t
b111000 v
b111000 y
b11111111111111110000000000000000 `
1!
#150000
0!
#155000
b10 ]
b1000 ?
b1000 G
b1000 N
b1000 p
b1000 A
b1000 |
b1010 C
b1010 E
b11111111111111111111111111111110 B
b11111111111111111111111111111110 D
b0 (
b0 O
b0 !"
b11111111111111111111111111111110 )
b11111111111111111111111111111110 ~
b0 #
b0 U
b0 _
b0 7
b0 R
b0 ^
00
b10 &
b10 \
1'
b1010 4
b1010 d
b1010 o
b0 $
b0 l
b0 {
b1010 +
b1010 b
b1010 h
b1 %
b1 k
b1 z
b0 6
b0 K
b0 M
b0 P
b0 X
b0 f
b1101 *
b1101 j
b1101 }
b10011 .
b10011 J
b10011 W
b10011 c
b10011 i
b101000001000011010010011 3
b101000001000011010010011 e
b101000001000011010010011 n
b1000000 /
b1000000 u
b1000000 x
b1000000 ,
b1000000 w
b111100 -
b111100 m
b111100 t
b111100 v
b111100 y
b11111111111111111111111111111111 `
1!
#160000
0!
#165000
b1111111100 ]
b11111111111111111111111111110000 A
b11111111111111111111111111110000 |
b11 C
b11 E
b11111111111111111111111111110000 ?
b11111111111111111111111111110000 G
b11111111111111111111111111110000 N
b11111111111111111111111111110000 p
b11 4
b11 d
b11 o
b111 @
b111 F
b111 L
b11 +
b11 b
b11 h
b1 6
b1 K
b1 M
b1 P
b1 X
b1 f
b1110 *
b1110 j
b1110 }
b1100001001011100010011 3
b1100001001011100010011 e
b1100001001011100010011 n
b1000100 /
b1000100 u
b1000100 x
b1000100 ,
b1000100 w
b1000000 -
b1000000 m
b1000000 t
b1000000 v
b1000000 y
b0 `
1!
#170000
0!
#175000
b0 ]
b1 A
b1 |
b101 C
b101 E
b1 ?
b1 G
b1 N
b1 p
b101 4
b101 d
b101 o
b101 @
b101 F
b101 L
b101 +
b101 b
b101 h
b10 6
b10 K
b10 M
b10 P
b10 X
b10 f
b1111 *
b1111 j
b1111 }
b10100001010011110010011 3
b10100001010011110010011 e
b10100001010011110010011 n
b1001000 /
b1001000 u
b1001000 x
b1001000 ,
b1001000 w
b1000100 -
b1000100 m
b1000100 t
b1000100 v
b1000100 y
1!
#180000
0!
#185000
b0 A
b0 |
b110 C
b110 E
1<
b0 ?
b0 G
b0 N
b0 p
b110 4
b110 d
b110 o
b110 @
b110 F
b110 L
b110 +
b110 b
b110 h
b11 6
b11 K
b11 M
b11 P
b11 X
b11 f
b10000 *
b10000 j
b10000 }
b11000001011100000010011 3
b11000001011100000010011 e
b11000001011100000010011 n
b1001100 /
b1001100 u
b1001100 x
b1001100 ,
b1001100 w
b1001000 -
b1001000 m
b1001000 t
b1001000 v
b1001000 y
1!
#190000
0!
#195000
b1111111110 ]
b11111111111111111111111111111001 A
b11111111111111111111111111111001 |
b111 C
b111 E
0<
b11111111111111111111111111111001 ?
b11111111111111111111111111111001 G
b11111111111111111111111111111001 N
b11111111111111111111111111111001 p
b111 4
b111 d
b111 o
b100 @
b100 F
b100 L
b111 +
b111 b
b111 h
b100 6
b100 K
b100 M
b100 P
b100 X
b100 f
b10001 *
b10001 j
b10001 }
b11100001100100010010011 3
b11100001100100010010011 e
b11100001100100010010011 n
b1010000 /
b1010000 u
b1010000 x
b1010000 ,
b1010000 w
b1001100 -
b1001100 m
b1001100 t
b1001100 v
b1001100 y
1!
#200000
0!
#205000
b1111111111 ]
b111111111111111111111111111111 A
b111111111111111111111111111111 |
b10 C
b10 E
b111111111111111111111111111111 ?
b111111111111111111111111111111 G
b111111111111111111111111111111 N
b111111111111111111111111111111 p
b10 4
b10 d
b10 o
b1000 @
b1000 F
b1000 L
b10 +
b10 b
b10 h
b101 6
b101 K
b101 M
b101 P
b101 X
b101 f
b10010 *
b10010 j
b10010 }
b1000001101100100010011 3
b1000001101100100010011 e
b1000001101100100010011 n
b1010100 /
b1010100 u
b1010100 x
b1010100 ,
b1010100 w
b1010000 -
b1010000 m
b1010000 t
b1010000 v
b1010000 y
1!
#210000
0!
#215000
b1111111111 ]
b11111111111111111111111111111111 A
b11111111111111111111111111111111 |
b1001 @
b1001 F
b1001 L
0<
b11111111111111111111111111111111 ?
b11111111111111111111111111111111 G
b11111111111111111111111111111111 N
b11111111111111111111111111111111 p
1I
b10000000010 C
b10000000010 E
b10000000010 4
b10000000010 d
b10000000010 o
b10000000010 +
b10000000010 b
b10000000010 h
b10011 *
b10011 j
b10011 }
b1000000001000001101100110010011 3
b1000000001000001101100110010011 e
b1000000001000001101100110010011 n
b1011000 /
b1011000 u
b1011000 x
b1011000 ,
b1011000 w
b1010100 -
b1010100 m
b1010100 t
b1010100 v
b1010100 y
1!
#220000
0!
#225000
0I
b11111111111111111111111111111111 A
b11111111111111111111111111111111 |
b11 C
b11 E
b11111111111111111111111111111111 ?
b11111111111111111111111111111111 G
b11111111111111111111111111111111 N
b11111111111111111111111111111111 p
b11 4
b11 d
b11 o
b11 @
b11 F
b11 L
b11 +
b11 b
b11 h
b110 6
b110 K
b110 M
b110 P
b110 X
b110 f
b10100 *
b10100 j
b10100 }
b1100001110101000010011 3
b1100001110101000010011 e
b1100001110101000010011 n
b1011100 /
b1011100 u
b1011100 x
b1011100 ,
b1011100 w
b1011000 -
b1011000 m
b1011000 t
b1011000 v
b1011000 y
1!
#230000
0!
#235000
1<
b0 ]
b0 A
b0 |
b1 C
b1 E
b0 ?
b0 G
b0 N
b0 p
b1 4
b1 d
b1 o
b10 @
b10 F
b10 L
b1 +
b1 b
b1 h
b111 6
b111 K
b111 M
b111 P
b111 X
b111 f
b10101 *
b10101 j
b10101 }
b100001111101010010011 3
b100001111101010010011 e
b100001111101010010011 n
b1100000 /
b1100000 u
b1100000 x
b1100000 ,
b1100000 w
b1011100 -
b1011100 m
b1011100 t
b1011100 v
b1011100 y
1!
#240000
0!
#245000
b1111111100 ]
0<
b11111111111111111111111111110000 ?
b11111111111111111111111111110000 G
b11111111111111111111111111110000 N
b11111111111111111111111111110000 p
b0 C
b0 E
b11111111111111111111111111110000 B
b11111111111111111111111111110000 D
b11111111111111111111111111110000 )
b11111111111111111111111111110000 ~
b0 @
b0 F
b0 L
11
b1 &
b1 \
b0 4
b0 d
b0 o
b0 +
b0 b
b0 h
b101 %
b101 k
b101 z
b10 6
b10 K
b10 M
b10 P
b10 X
b10 f
b10110 *
b10110 j
b10110 }
b11 .
b11 J
b11 W
b11 c
b11 i
b101010101100000011 3
b101010101100000011 e
b101010101100000011 n
b1100100 /
b1100100 u
b1100100 x
b1100100 ,
b1100100 w
b1100000 -
b1100000 m
b1100000 t
b1100000 v
b1100000 y
1!
#250000
0!
#255000
b1111111111 ]
b11111111111111111111111111111111 ?
b11111111111111111111111111111111 G
b11111111111111111111111111111111 N
b11111111111111111111111111111111 p
b100 C
b100 E
b11111111111111111111111111111011 B
b11111111111111111111111111111011 D
b100 4
b100 d
b100 o
b11111111111111111111111111111011 )
b11111111111111111111111111111011 ~
b100 +
b100 b
b100 h
b100 %
b100 k
b100 z
b1 6
b1 K
b1 M
b1 P
b1 X
b1 f
b10111 *
b10111 j
b10111 }
b10000100001101110000011 3
b10000100001101110000011 e
b10000100001101110000011 n
b1101000 /
b1101000 u
b1101000 x
b1101000 ,
b1101000 w
b1100100 -
b1100100 m
b1100100 t
b1100100 v
b1100100 y
1!
#260000
0!
#265000
b1 ]
b111 ?
b111 G
b111 N
b111 p
b110 C
b110 E
b1 B
b1 D
b110 4
b110 d
b110 o
b1 )
b1 ~
b110 +
b110 b
b110 h
b11 %
b11 k
b11 z
b0 6
b0 K
b0 M
b0 P
b0 X
b0 f
b11000 *
b11000 j
b11000 }
b11000011000110000000011 3
b11000011000110000000011 e
b11000011000110000000011 n
b1101100 /
b1101100 u
b1101100 x
b1101100 ,
b1101100 w
b1101000 -
b1101000 m
b1101000 t
b1101000 v
b1101000 y
1!
#270000
0!
#275000
b0 ]
b1 ?
b1 G
b1 N
b1 p
b11111111111111111111111111111011 B
b11111111111111111111111111111011 D
b11111111111111111111111111111011 )
b11111111111111111111111111111011 ~
b11110000 A
b11110000 |
b100 %
b100 k
b100 z
b100 6
b100 K
b100 M
b100 P
b100 X
b100 f
b11001 *
b11001 j
b11001 }
b11110000 9
b11110000 T
b11000100100110010000011 3
b11000100100110010000011 e
b11000100100110010000011 n
b1110000 /
b1110000 u
b1110000 x
b1110000 ,
b1110000 w
b11111111111111111111111111110000 8
b11111111111111111111111111110000 Q
b11111111111111111111111111110000 a
b1101100 -
b1101100 m
b1101100 t
b1101100 v
b1101100 y
1!
#280000
0!
#285000
b1111111101 ]
b11111111111111111111111111110100 ?
b11111111111111111111111111110100 G
b11111111111111111111111111110100 N
b11111111111111111111111111110100 p
b100 C
b100 E
b11111111111111111111111111110000 B
b11111111111111111111111111110000 D
b100 4
b100 d
b100 o
b11111111111111111111111111110000 )
b11111111111111111111111111110000 ~
b100000000 A
b100000000 |
b100 +
b100 b
b100 h
b101 %
b101 k
b101 z
b101 6
b101 K
b101 M
b101 P
b101 X
b101 f
b11010 *
b11010 j
b11010 }
b100000000 9
b100000000 T
b10000101101110100000011 3
b10000101101110100000011 e
b10000101101110100000011 n
b1110100 /
b1110100 u
b1110100 x
b1110100 ,
b1110100 w
b11111111111110110000000100000000 8
b11111111111110110000000100000000 Q
b11111111111110110000000100000000 a
b1110000 -
b1110000 m
b1110000 t
b1110000 v
b1110000 y
1!
#290000
0!
#295000
b0 ]
b1 ?
b1 G
b1 N
b1 p
b0 C
b0 E
b1 B
b1 D
b1 )
b1 ~
01
b101 &
b101 \
12
b0 4
b0 d
b0 o
b1111000 A
b1111000 |
b0 +
b0 b
b0 h
b11 %
b11 k
b11 z
b0 6
b0 K
b0 M
b0 P
b0 X
b0 f
b1 *
b1 j
b1 }
b1100111 .
b1100111 J
b1100111 W
b1100111 c
b1100111 i
b0 9
b0 T
b11000000011100111 3
b11000000011100111 e
b11000000011100111 n
b1 /
b1 u
b1 x
b1111000 ,
b1111000 w
b0 8
b0 Q
b0 a
b1110100 -
b1110100 m
b1110100 t
b1110100 v
b1110100 y
1!
#300000
0!
#305000
b1111111111 ]
b11111111111111111111111111111110 ?
b11111111111111111111111111111110 G
b11111111111111111111111111111110 N
b11111111111111111111111111111110 p
b101 /
b101 u
b101 x
1I
b11111111111111111111111111111110 C
b11111111111111111111111111111110 E
b0 B
b0 D
b0 )
b0 ~
b10 &
b10 \
02
b11111111111111111111111111111110 4
b11111111111111111111111111111110 d
b11111111111111111111111111111110 o
b111111111110 +
b111111111110 b
b111111111110 h
b0 %
b0 k
b0 z
b10011 .
b10011 J
b10011 W
b10011 c
b10011 i
b11111111111111111111111111111110 A
b11111111111111111111111111111110 |
b11111111111000000000000010010011 3
b11111111111000000000000010010011 e
b11111111111000000000000010010011 n
b101 ,
b101 w
b1 -
b1 m
b1 t
b1 v
b1 y
1!
#310000
0!
#315000
b0 ]
b11 A
b11 |
b11 ?
b11 G
b11 N
b11 p
0I
b11 C
b11 E
b11 4
b11 d
b11 o
b11 +
b11 b
b11 h
b10 *
b10 j
b10 }
b1100000000000100010011 3
b1100000000000100010011 e
b1100000000000100010011 n
b1001 /
b1001 u
b1001 x
b1001 ,
b1001 w
b101 -
b101 m
b101 t
b101 v
b101 y
1!
#320000
0!
#325000
b1 A
b1 |
b1 ?
b1 G
b1 N
b1 p
b11111111111111111111111111111110 B
b11111111111111111111111111111110 D
b11 (
b11 O
b11 !"
b11111111111111111111111111111110 )
b11111111111111111111111111111110 ~
b1 =
b1 Z
b0 4
b0 d
b0 o
b0 +
b0 b
b0 h
b10 $
b10 l
b10 {
b1 %
b1 k
b1 z
b11 *
b11 j
b11 }
b110011 .
b110011 J
b110011 W
b110011 c
b110011 i
b1000001000000110110011 3
b1000001000000110110011 e
b1000001000000110110011 n
b1101 /
b1101 u
b1101 x
b1101 ,
b1101 w
b1001 -
b1001 m
b1001 t
b1001 v
b1001 y
1!
#330000
0!
#335000
b1111111110 ]
b11111111111111111111111111111011 A
b11111111111111111111111111111011 |
b11111111111111111111111111111011 ?
b11111111111111111111111111111011 G
b11111111111111111111111111111011 N
b11111111111111111111111111111011 p
b1 @
b1 F
b1 L
1H
b100000 5
b100000 g
b100 *
b100 j
b100 }
b1000000001000001000001000110011 3
b1000000001000001000001000110011 e
b1000000001000001000001000110011 n
b10001 /
b10001 u
b10001 x
b10001 ,
b10001 w
b1101 -
b1101 m
b1101 t
b1101 v
b1101 y
1!
#340000
0!
#345000
b1111111100 ]
b11111111111111111111111111110000 A
b11111111111111111111111111110000 |
b11111111111111111111111111110000 ?
b11111111111111111111111111110000 G
b11111111111111111111111111110000 N
b11111111111111111111111111110000 p
0H
b111 @
b111 F
b111 L
b0 5
b0 g
b1 6
b1 K
b1 M
b1 P
b1 X
b1 f
b101 *
b101 j
b101 }
b1000001001001010110011 3
b1000001001001010110011 e
b1000001001001010110011 n
b10101 /
b10101 u
b10101 x
b10101 ,
b10101 w
b10001 -
b10001 m
b10001 t
b10001 v
b10001 y
1!
#350000
0!
#355000
b0 ]
b1 A
b1 |
b1 ?
b1 G
b1 N
b1 p
b101 @
b101 F
b101 L
b10 6
b10 K
b10 M
b10 P
b10 X
b10 f
b110 *
b110 j
b110 }
b1000001010001100110011 3
b1000001010001100110011 e
b1000001010001100110011 n
b11001 /
b11001 u
b11001 x
b11001 ,
b11001 w
b10101 -
b10101 m
b10101 t
b10101 v
b10101 y
1!
#360000
0!
#365000
b0 A
b0 |
1<
b0 ?
b0 G
b0 N
b0 p
b110 @
b110 F
b110 L
b11 6
b11 K
b11 M
b11 P
b11 X
b11 f
b111 *
b111 j
b111 }
b1000001011001110110011 3
b1000001011001110110011 e
b1000001011001110110011 n
b11101 /
b11101 u
b11101 x
b11101 ,
b11101 w
b11001 -
b11001 m
b11001 t
b11001 v
b11001 y
1!
#370000
0!
#375000
b1111111111 ]
b11111111111111111111111111111101 A
b11111111111111111111111111111101 |
0<
b11111111111111111111111111111101 ?
b11111111111111111111111111111101 G
b11111111111111111111111111111101 N
b11111111111111111111111111111101 p
b100 @
b100 F
b100 L
b100 6
b100 K
b100 M
b100 P
b100 X
b100 f
b1000 *
b1000 j
b1000 }
b1000001100010000110011 3
b1000001100010000110011 e
b1000001100010000110011 n
b100001 /
b100001 u
b100001 x
b100001 ,
b100001 w
b11101 -
b11101 m
b11101 t
b11101 v
b11101 y
1!
#380000
0!
#385000
b11111111111111111111111111111 A
b11111111111111111111111111111 |
b11111111111111111111111111111 ?
b11111111111111111111111111111 G
b11111111111111111111111111111 N
b11111111111111111111111111111 p
b1000 @
b1000 F
b1000 L
b101 6
b101 K
b101 M
b101 P
b101 X
b101 f
b1001 *
b1001 j
b1001 }
b1000001101010010110011 3
b1000001101010010110011 e
b1000001101010010110011 n
b100101 /
b100101 u
b100101 x
b100101 ,
b100101 w
b100001 -
b100001 m
b100001 t
b100001 v
b100001 y
1!
#390000
0!
#395000
b11111111111111111111111111111111 A
b11111111111111111111111111111111 |
b11111111111111111111111111111111 ?
b11111111111111111111111111111111 G
b11111111111111111111111111111111 N
b11111111111111111111111111111111 p
b1001 @
b1001 F
b1001 L
1H
b100000 5
b100000 g
b1010 *
b1010 j
b1010 }
b1000000001000001101010100110011 3
b1000000001000001101010100110011 e
b1000000001000001101010100110011 n
b101001 /
b101001 u
b101001 x
b101001 ,
b101001 w
b100101 -
b100101 m
b100101 t
b100101 v
b100101 y
1!
#400000
0!
#405000
0H
b11 @
b11 F
b11 L
b0 5
b0 g
b110 6
b110 K
b110 M
b110 P
b110 X
b110 f
b1011 *
b1011 j
b1011 }
b1000001110010110110011 3
b1000001110010110110011 e
b1000001110010110110011 n
b101101 /
b101101 u
b101101 x
b101101 ,
b101101 w
b101001 -
b101001 m
b101001 t
b101001 v
b101001 y
1!
#410000
0!
